full_model,width3
RF01689/licorna_logs/4FRN.seq_into_RF01689_RF01689_target2.seq_licorna.log
RF01689/licorna_logs/w3_4FRN.seq_into_RF01689_RF01689_target2.seq_licorna.log
,
RF01689/licorna_logs/4FRN.seq_into_RF01689_RF01689_target5.seq_licorna.log
RF01689/licorna_logs/w3_4FRN.seq_into_RF01689_RF01689_target5.seq_licorna.log
,
RF01689/licorna_logs/4FRN.seq_into_RF01689_RF01689_target11.seq_licorna.log
RF01689/licorna_logs/w3_4FRN.seq_into_RF01689_RF01689_target11.seq_licorna.log
,
RF01689/licorna_logs/4FRN.seq_into_RF01689_RF01689_target3.seq_licorna.log
RF01689/licorna_logs/w3_4FRN.seq_into_RF01689_RF01689_target3.seq_licorna.log
,
RF01689/licorna_logs/4FRN.seq_into_RF01689_RF01689_target4.seq_licorna.log
RF01689/licorna_logs/w3_4FRN.seq_into_RF01689_RF01689_target4.seq_licorna.log
,
RF01689/licorna_logs/4FRN.seq_into_RF01689_RF01689_target6.seq_licorna.log
RF01689/licorna_logs/w3_4FRN.seq_into_RF01689_RF01689_target6.seq_licorna.log
,
RF01689/licorna_logs/4FRN.seq_into_RF01689_RF01689_target8.seq_licorna.log
RF01689/licorna_logs/w3_4FRN.seq_into_RF01689_RF01689_target8.seq_licorna.log
,
RF01689/licorna_logs/4FRN.seq_into_RF01689_RF01689_target10.seq_licorna.log
RF01689/licorna_logs/w3_4FRN.seq_into_RF01689_RF01689_target10.seq_licorna.log
,
RF01689/licorna_logs/4FRN.seq_into_RF01689_RF01689_target14.seq_licorna.log
RF01689/licorna_logs/w3_4FRN.seq_into_RF01689_RF01689_target14.seq_licorna.log
,
RF01689/licorna_logs/4FRN.seq_into_RF01689_RF01689_target9.seq_licorna.log
RF01689/licorna_logs/w3_4FRN.seq_into_RF01689_RF01689_target9.seq_licorna.log
,
RF01689/licorna_logs/4FRN.seq_into_RF01689_RF01689_target12.seq_licorna.log
RF01689/licorna_logs/w3_4FRN.seq_into_RF01689_RF01689_target12.seq_licorna.log
,
RF01689/licorna_logs/4FRN.seq_into_RF01689_RF01689_target7.seq_licorna.log
RF01689/licorna_logs/w3_4FRN.seq_into_RF01689_RF01689_target7.seq_licorna.log
,
RF01689/licorna_logs/4FRN.seq_into_RF01689_RF01689_target13.seq_licorna.log
RF01689/licorna_logs/w3_4FRN.seq_into_RF01689_RF01689_target13.seq_licorna.log
,
RF01689/licorna_logs/4FRN.seq_into_RF01689_RF01689_target1.seq_licorna.log
RF01689/licorna_logs/w3_4FRN.seq_into_RF01689_RF01689_target1.seq_licorna.log
,
RF01689/licorna_logs/4FRN.seq_into_RF01689_RF01689_target15.seq_licorna.log
RF01689/licorna_logs/w3_4FRN.seq_into_RF01689_RF01689_target15.seq_licorna.log
,
