%!PS-Adobe-3.0 EPSF-3.0
%%Title: sep2.eps
%%Creator: matplotlib version 3.3.3, http://matplotlib.org/
%%CreationDate: Fri Apr  9 12:45:26 2021
%%Orientation: portrait
%%BoundingBox: 120.24000000000002 255.74400000000003 491.75999999999993 536.256
%%EndComments
%%BeginProlog
/mpldict 8 dict def
mpldict begin
/m { moveto } bind def
/l { lineto } bind def
/r { rlineto } bind def
/c { curveto } bind def
/cl { closepath } bind def
/box {
      m
      1 index 0 r
      0 exch r
      neg 0 r
      cl
    } bind def
/clipbox {
      box
      clip
      newpath
    } bind def
%!PS-Adobe-3.0 Resource-Font
%%Title: DejaVu Sans
%%Copyright: Copyright (c) 2003 by Bitstream, Inc. All Rights Reserved. Copyright (c) 2006 by Tavmjong Bah. All Rights Reserved. DejaVu changes are in public domain 
%%Creator: Converted from TrueType to type 3 by PPR
25 dict begin
/_d{bind def}bind def
/_m{moveto}_d
/_l{lineto}_d
/_cl{closepath eofill}_d
/_c{curveto}_d
/_sc{7 -1 roll{setcachedevice}{pop pop pop pop pop pop}ifelse}_d
/_e{exec}_d
/FontName /DejaVuSans def
/PaintType 0 def
/FontMatrix[.001 0 0 .001 0 0]def
/FontBBox[-1021 -463 1793 1232]def
/FontType 3 def
/Encoding [ /zero /one /two /three /four /five /six /seven /eight ] def
/FontInfo 10 dict dup begin
/FamilyName (DejaVu Sans) def
/FullName (DejaVu Sans) def
/Notice (Copyright (c) 2003 by Bitstream, Inc. All Rights Reserved. Copyright (c) 2006 by Tavmjong Bah. All Rights Reserved. DejaVu changes are in public domain ) def
/Weight (Book) def
/Version (Version 2.35) def
/ItalicAngle 0.0 def
/isFixedPitch false def
/UnderlinePosition -130 def
/UnderlineThickness 90 def
end readonly def
/CharStrings 10 dict dup begin
/.notdef 0 def
/zero{636 0 66 -13 570 742 _sc
318 664 _m
267 664 229 639 203 589 _c
177 539 165 464 165 364 _c
165 264 177 189 203 139 _c
229 89 267 64 318 64 _c
369 64 407 89 433 139 _c
458 189 471 264 471 364 _c
471 464 458 539 433 589 _c
407 639 369 664 318 664 _c
318 742 _m
399 742 461 709 505 645 _c
548 580 570 486 570 364 _c
570 241 548 147 505 83 _c
461 19 399 -13 318 -13 _c
236 -13 173 19 130 83 _c
87 147 66 241 66 364 _c
66 486 87 580 130 645 _c
173 709 236 742 318 742 _c
_cl}_d
/one{636 0 110 0 544 729 _sc
124 83 _m
285 83 _l
285 639 _l
110 604 _l
110 694 _l
284 729 _l
383 729 _l
383 83 _l
544 83 _l
544 0 _l
124 0 _l
124 83 _l
_cl}_d
/two{{636 0 73 0 536 742 _sc
192 83 _m
536 83 _l
536 0 _l
73 0 _l
73 83 _l
110 121 161 173 226 239 _c
290 304 331 346 348 365 _c
380 400 402 430 414 455 _c
426 479 433 504 433 528 _c
433 566 419 598 392 622 _c
365 646 330 659 286 659 _c
255 659 222 653 188 643 _c
154 632 117 616 78 594 _c
78 694 _l
118 710 155 722 189 730 _c
223 738 255 742 284 742 _c
}_e{359 742 419 723 464 685 _c
509 647 532 597 532 534 _c
532 504 526 475 515 449 _c
504 422 484 390 454 354 _c
446 344 420 317 376 272 _c
332 227 271 164 192 83 _c
_cl}_e}_d
/three{{636 0 76 -13 556 742 _sc
406 393 _m
453 383 490 362 516 330 _c
542 298 556 258 556 212 _c
556 140 531 84 482 45 _c
432 6 362 -13 271 -13 _c
240 -13 208 -10 176 -4 _c
144 1 110 10 76 22 _c
76 117 _l
103 101 133 89 166 81 _c
198 73 232 69 268 69 _c
330 69 377 81 409 105 _c
441 129 458 165 458 212 _c
458 254 443 288 413 312 _c
383 336 341 349 287 349 _c
}_e{202 349 _l
202 430 _l
291 430 _l
339 430 376 439 402 459 _c
428 478 441 506 441 543 _c
441 580 427 609 401 629 _c
374 649 336 659 287 659 _c
260 659 231 656 200 650 _c
169 644 135 635 98 623 _c
98 711 _l
135 721 170 729 203 734 _c
235 739 266 742 296 742 _c
370 742 429 725 473 691 _c
517 657 539 611 539 553 _c
539 513 527 479 504 451 _c
481 423 448 403 406 393 _c
_cl}_e}_d
/four{636 0 49 0 580 729 _sc
378 643 _m
129 254 _l
378 254 _l
378 643 _l
352 729 _m
476 729 _l
476 254 _l
580 254 _l
580 172 _l
476 172 _l
476 0 _l
378 0 _l
378 172 _l
49 172 _l
49 267 _l
352 729 _l
_cl}_d
/five{{636 0 77 -13 549 729 _sc
108 729 _m
495 729 _l
495 646 _l
198 646 _l
198 467 _l
212 472 227 476 241 478 _c
255 480 270 482 284 482 _c
365 482 429 459 477 415 _c
525 370 549 310 549 234 _c
549 155 524 94 475 51 _c
426 8 357 -13 269 -13 _c
238 -13 207 -10 175 -6 _c
143 -1 111 6 77 17 _c
77 116 _l
106 100 136 88 168 80 _c
199 72 232 69 267 69 _c
}_e{323 69 368 83 401 113 _c
433 143 450 183 450 234 _c
450 284 433 324 401 354 _c
368 384 323 399 267 399 _c
241 399 214 396 188 390 _c
162 384 135 375 108 363 _c
108 729 _l
_cl}_e}_d
/six{{636 0 70 -13 573 742 _sc
330 404 _m
286 404 251 388 225 358 _c
199 328 186 286 186 234 _c
186 181 199 139 225 109 _c
251 79 286 64 330 64 _c
374 64 409 79 435 109 _c
461 139 474 181 474 234 _c
474 286 461 328 435 358 _c
409 388 374 404 330 404 _c
526 713 _m
526 623 _l
501 635 476 644 451 650 _c
425 656 400 659 376 659 _c
310 659 260 637 226 593 _c
}_e{192 549 172 482 168 394 _c
187 422 211 444 240 459 _c
269 474 301 482 336 482 _c
409 482 467 459 509 415 _c
551 371 573 310 573 234 _c
573 159 550 99 506 54 _c
462 9 403 -13 330 -13 _c
246 -13 181 19 137 83 _c
92 147 70 241 70 364 _c
70 479 97 571 152 639 _c
206 707 280 742 372 742 _c
396 742 421 739 447 735 _c
472 730 498 723 526 713 _c
_cl}_e}_d
/seven{636 0 82 0 551 729 _sc
82 729 _m
551 729 _l
551 687 _l
286 0 _l
183 0 _l
432 646 _l
82 646 _l
82 729 _l
_cl}_d
/eight{{636 0 68 -13 568 742 _sc
318 346 _m
271 346 234 333 207 308 _c
180 283 167 249 167 205 _c
167 161 180 126 207 101 _c
234 76 271 64 318 64 _c
364 64 401 76 428 102 _c
455 127 469 161 469 205 _c
469 249 455 283 429 308 _c
402 333 365 346 318 346 _c
219 388 _m
177 398 144 418 120 447 _c
96 476 85 511 85 553 _c
85 611 105 657 147 691 _c
188 725 245 742 318 742 _c
}_e{390 742 447 725 489 691 _c
530 657 551 611 551 553 _c
551 511 539 476 515 447 _c
491 418 459 398 417 388 _c
464 377 501 355 528 323 _c
554 291 568 251 568 205 _c
568 134 546 80 503 43 _c
459 5 398 -13 318 -13 _c
237 -13 175 5 132 43 _c
89 80 68 134 68 205 _c
68 251 81 291 108 323 _c
134 355 171 377 219 388 _c
183 544 _m
183 506 194 476 218 455 _c
}_e{242 434 275 424 318 424 _c
360 424 393 434 417 455 _c
441 476 453 506 453 544 _c
453 582 441 611 417 632 _c
393 653 360 664 318 664 _c
275 664 242 653 218 632 _c
194 611 183 582 183 544 _c
_cl}_e}_d
end readonly def

/BuildGlyph
 {exch begin
 CharStrings exch
 2 copy known not{pop /.notdef}if
 true 3 1 roll get exec
 end}_d

/BuildChar {
 1 index /Encoding get exch get
 1 index /BuildGlyph get exec
}_d

FontName currentdict end definefont pop
end
%%EndProlog
mpldict begin
120.24 255.744 translate
371.52 280.512 0 0 clipbox
gsave
0 0 m
371.52 0 l
371.52 280.512 l
0 280.512 l
cl
1.000 setgray
fill
grestore
gsave
7.2 7.2 m
364.32 7.2 l
364.32 273.312 l
7.2 273.312 l
cl
1.000 setgray
fill
grestore
1.000 setlinewidth
1 setlinejoin
0 setlinecap
[] 0 setdash
0.000 setgray
gsave
357.1 266.1 7.2 7.2 clipbox
23.432727 19.296 m
23.432727 140.256 l
stroke
grestore
gsave
357.1 266.1 7.2 7.2 clipbox
23.432727 19.296 m
185.76 19.296 l
stroke
grestore
gsave
357.1 266.1 7.2 7.2 clipbox
23.432727 140.256 m
23.432727 261.216 l
stroke
grestore
gsave
357.1 266.1 7.2 7.2 clipbox
23.432727 140.256 m
185.76 140.256 l
stroke
grestore
gsave
357.1 266.1 7.2 7.2 clipbox
23.432727 261.216 m
185.76 261.216 l
stroke
grestore
gsave
357.1 266.1 7.2 7.2 clipbox
185.76 19.296 m
185.76 140.256 l
stroke
grestore
gsave
357.1 266.1 7.2 7.2 clipbox
185.76 19.296 m
348.087273 19.296 l
stroke
grestore
gsave
357.1 266.1 7.2 7.2 clipbox
185.76 140.256 m
185.76 261.216 l
stroke
grestore
gsave
357.1 266.1 7.2 7.2 clipbox
185.76 140.256 m
348.087273 140.256 l
stroke
grestore
gsave
357.1 266.1 7.2 7.2 clipbox
185.76 261.216 m
348.087273 261.216 l
stroke
grestore
gsave
357.1 266.1 7.2 7.2 clipbox
348.087273 19.296 m
348.087273 140.256 l
stroke
grestore
gsave
357.1 266.1 7.2 7.2 clipbox
348.087273 140.256 m
348.087273 261.216 l
stroke
grestore
/p0_0 {
newpath
translate
0 -14.142136 m
3.750538 -14.142136 7.347969 -12.652031 10 -10 c
12.652031 -7.347969 14.142136 -3.750538 14.142136 0 c
14.142136 3.750538 12.652031 7.347969 10 10 c
7.347969 12.652031 3.750538 14.142136 0 14.142136 c
-3.750538 14.142136 -7.347969 12.652031 -10 10 c
-12.652031 7.347969 -14.142136 3.750538 -14.142136 0 c
-14.142136 -3.750538 -12.652031 -7.347969 -10 -10 c
-7.347969 -12.652031 -3.750538 -14.142136 0 -14.142136 c
cl

} bind def
0.000 0.000 1.000 setrgbcolor
gsave
357.1 266.1 7.2 7.2 clipbox
23.4327 19.296 p0_0
gsave
fill
grestore
stroke
grestore
1.000 0.000 0.000 setrgbcolor
gsave
357.1 266.1 7.2 7.2 clipbox
23.4327 140.256 p0_0
gsave
fill
grestore
stroke
grestore
0.000 0.000 1.000 setrgbcolor
gsave
357.1 266.1 7.2 7.2 clipbox
23.4327 261.216 p0_0
gsave
fill
grestore
stroke
grestore
1.000 0.000 0.000 setrgbcolor
gsave
357.1 266.1 7.2 7.2 clipbox
185.76 19.296 p0_0
gsave
fill
grestore
stroke
grestore
0.000 0.000 1.000 setrgbcolor
gsave
357.1 266.1 7.2 7.2 clipbox
185.76 140.256 p0_0
gsave
fill
grestore
stroke
grestore
1.000 0.000 0.000 setrgbcolor
gsave
357.1 266.1 7.2 7.2 clipbox
185.76 261.216 p0_0
gsave
fill
grestore
stroke
grestore
gsave
357.1 266.1 7.2 7.2 clipbox
348.087 19.296 p0_0
gsave
fill
grestore
stroke
grestore
gsave
357.1 266.1 7.2 7.2 clipbox
348.087 140.256 p0_0
gsave
fill
grestore
stroke
grestore
gsave
357.1 266.1 7.2 7.2 clipbox
348.087 261.216 p0_0
gsave
fill
grestore
stroke
grestore
0.800 setlinewidth
0 setlinejoin
2 setlinecap
0.000 setgray
gsave
7.2 7.2 m
7.2 273.312 l
stroke
grestore
gsave
364.32 7.2 m
364.32 273.312 l
stroke
grestore
gsave
7.2 7.2 m
364.32 7.2 l
stroke
grestore
gsave
7.2 273.312 m
364.32 273.312 l
stroke
grestore
/DejaVuSans findfont
12.000 scalefont
setfont
gsave
19.612415 15.983500 translate
0.000000 rotate
0.000000 0 m /zero glyphshow
grestore
gsave
19.612415 136.943500 translate
0.000000 rotate
0.000000 0 m /one glyphshow
grestore
gsave
19.612415 257.903500 translate
0.000000 rotate
0.000000 0 m /two glyphshow
grestore
gsave
181.939688 15.983500 translate
0.000000 rotate
0.000000 0 m /three glyphshow
grestore
gsave
181.939688 136.943500 translate
0.000000 rotate
0.000000 0 m /four glyphshow
grestore
gsave
181.939688 257.903500 translate
0.000000 rotate
0.000000 0 m /five glyphshow
grestore
gsave
344.266960 15.983500 translate
0.000000 rotate
0.000000 0 m /six glyphshow
grestore
gsave
344.266960 136.943500 translate
0.000000 rotate
0.000000 0 m /seven glyphshow
grestore
gsave
344.266960 257.903500 translate
0.000000 rotate
0.000000 0 m /eight glyphshow
grestore

end
showpage
