%!PS-Adobe-3.0 EPSF-3.0
%%Title: scatter_plots_sps.eps
%%Creator: matplotlib version 3.3.3, http://matplotlib.org/
%%CreationDate: Thu Apr 22 19:24:45 2021
%%Orientation: portrait
%%BoundingBox: -48.04096162505622 306.00812500000006 660.0409616250563 485.99187500000005
%%EndComments
%%BeginProlog
/mpldict 8 dict def
mpldict begin
/m { moveto } bind def
/l { lineto } bind def
/r { rlineto } bind def
/c { curveto } bind def
/cl { closepath } bind def
/box {
      m
      1 index 0 r
      0 exch r
      neg 0 r
      cl
    } bind def
/clipbox {
      box
      clip
      newpath
    } bind def
%!PS-Adobe-3.0 Resource-Font
%%Title: DejaVu Sans
%%Copyright: Copyright (c) 2003 by Bitstream, Inc. All Rights Reserved. Copyright (c) 2006 by Tavmjong Bah. All Rights Reserved. DejaVu changes are in public domain 
%%Creator: Converted from TrueType to type 3 by PPR
25 dict begin
/_d{bind def}bind def
/_m{moveto}_d
/_l{lineto}_d
/_cl{closepath eofill}_d
/_c{curveto}_d
/_sc{7 -1 roll{setcachedevice}{pop pop pop pop pop pop}ifelse}_d
/_e{exec}_d
/FontName /DejaVuSans def
/PaintType 0 def
/FontMatrix[.001 0 0 .001 0 0]def
/FontBBox[-1021 -463 1793 1232]def
/FontType 3 def
/Encoding [ /parenleft /parenright /zero /two /three /four /five /a /b /c /d /f /h /i /l /t /u /w /minus ] def
/FontInfo 10 dict dup begin
/FamilyName (DejaVu Sans) def
/FullName (DejaVu Sans) def
/Notice (Copyright (c) 2003 by Bitstream, Inc. All Rights Reserved. Copyright (c) 2006 by Tavmjong Bah. All Rights Reserved. DejaVu changes are in public domain ) def
/Weight (Book) def
/Version (Version 2.35) def
/ItalicAngle 0.0 def
/isFixedPitch false def
/UnderlinePosition -130 def
/UnderlineThickness 90 def
end readonly def
/CharStrings 20 dict dup begin
/.notdef 0 def
/parenleft{390 0 86 -131 310 759 _sc
310 759 _m
266 683 234 609 213 536 _c
191 463 181 389 181 314 _c
181 238 191 164 213 91 _c
234 17 266 -56 310 -131 _c
232 -131 _l
183 -54 146 20 122 94 _c
98 168 86 241 86 314 _c
86 386 98 459 122 533 _c
146 607 182 682 232 759 _c
310 759 _l
_cl}_d
/parenright{390 0 80 -131 304 759 _sc
80 759 _m
158 759 _l
206 682 243 607 267 533 _c
291 459 304 386 304 314 _c
304 241 291 168 267 94 _c
243 20 206 -54 158 -131 _c
80 -131 _l
123 -56 155 17 177 91 _c
198 164 209 238 209 314 _c
209 389 198 463 177 536 _c
155 609 123 683 80 759 _c
_cl}_d
/zero{636 0 66 -13 570 742 _sc
318 664 _m
267 664 229 639 203 589 _c
177 539 165 464 165 364 _c
165 264 177 189 203 139 _c
229 89 267 64 318 64 _c
369 64 407 89 433 139 _c
458 189 471 264 471 364 _c
471 464 458 539 433 589 _c
407 639 369 664 318 664 _c
318 742 _m
399 742 461 709 505 645 _c
548 580 570 486 570 364 _c
570 241 548 147 505 83 _c
461 19 399 -13 318 -13 _c
236 -13 173 19 130 83 _c
87 147 66 241 66 364 _c
66 486 87 580 130 645 _c
173 709 236 742 318 742 _c
_cl}_d
/two{{636 0 73 0 536 742 _sc
192 83 _m
536 83 _l
536 0 _l
73 0 _l
73 83 _l
110 121 161 173 226 239 _c
290 304 331 346 348 365 _c
380 400 402 430 414 455 _c
426 479 433 504 433 528 _c
433 566 419 598 392 622 _c
365 646 330 659 286 659 _c
255 659 222 653 188 643 _c
154 632 117 616 78 594 _c
78 694 _l
118 710 155 722 189 730 _c
223 738 255 742 284 742 _c
}_e{359 742 419 723 464 685 _c
509 647 532 597 532 534 _c
532 504 526 475 515 449 _c
504 422 484 390 454 354 _c
446 344 420 317 376 272 _c
332 227 271 164 192 83 _c
_cl}_e}_d
/three{{636 0 76 -13 556 742 _sc
406 393 _m
453 383 490 362 516 330 _c
542 298 556 258 556 212 _c
556 140 531 84 482 45 _c
432 6 362 -13 271 -13 _c
240 -13 208 -10 176 -4 _c
144 1 110 10 76 22 _c
76 117 _l
103 101 133 89 166 81 _c
198 73 232 69 268 69 _c
330 69 377 81 409 105 _c
441 129 458 165 458 212 _c
458 254 443 288 413 312 _c
383 336 341 349 287 349 _c
}_e{202 349 _l
202 430 _l
291 430 _l
339 430 376 439 402 459 _c
428 478 441 506 441 543 _c
441 580 427 609 401 629 _c
374 649 336 659 287 659 _c
260 659 231 656 200 650 _c
169 644 135 635 98 623 _c
98 711 _l
135 721 170 729 203 734 _c
235 739 266 742 296 742 _c
370 742 429 725 473 691 _c
517 657 539 611 539 553 _c
539 513 527 479 504 451 _c
481 423 448 403 406 393 _c
_cl}_e}_d
/four{636 0 49 0 580 729 _sc
378 643 _m
129 254 _l
378 254 _l
378 643 _l
352 729 _m
476 729 _l
476 254 _l
580 254 _l
580 172 _l
476 172 _l
476 0 _l
378 0 _l
378 172 _l
49 172 _l
49 267 _l
352 729 _l
_cl}_d
/five{{636 0 77 -13 549 729 _sc
108 729 _m
495 729 _l
495 646 _l
198 646 _l
198 467 _l
212 472 227 476 241 478 _c
255 480 270 482 284 482 _c
365 482 429 459 477 415 _c
525 370 549 310 549 234 _c
549 155 524 94 475 51 _c
426 8 357 -13 269 -13 _c
238 -13 207 -10 175 -6 _c
143 -1 111 6 77 17 _c
77 116 _l
106 100 136 88 168 80 _c
199 72 232 69 267 69 _c
}_e{323 69 368 83 401 113 _c
433 143 450 183 450 234 _c
450 284 433 324 401 354 _c
368 384 323 399 267 399 _c
241 399 214 396 188 390 _c
162 384 135 375 108 363 _c
108 729 _l
_cl}_e}_d
/a{{613 0 60 -13 522 560 _sc
343 275 _m
270 275 220 266 192 250 _c
164 233 150 205 150 165 _c
150 133 160 107 181 89 _c
202 70 231 61 267 61 _c
317 61 357 78 387 114 _c
417 149 432 196 432 255 _c
432 275 _l
343 275 _l
522 312 _m
522 0 _l
432 0 _l
432 83 _l
411 49 385 25 355 10 _c
325 -5 287 -13 243 -13 _c
187 -13 142 2 109 33 _c
76 64 60 106 60 159 _c
}_e{60 220 80 266 122 298 _c
163 329 224 345 306 345 _c
432 345 _l
432 354 _l
432 395 418 427 391 450 _c
364 472 326 484 277 484 _c
245 484 215 480 185 472 _c
155 464 127 453 100 439 _c
100 522 _l
132 534 164 544 195 550 _c
226 556 256 560 286 560 _c
365 560 424 539 463 498 _c
502 457 522 395 522 312 _c
_cl}_e}_d
/b{{635 0 91 -13 580 760 _sc
487 273 _m
487 339 473 390 446 428 _c
418 466 381 485 334 485 _c
286 485 249 466 222 428 _c
194 390 181 339 181 273 _c
181 207 194 155 222 117 _c
249 79 286 61 334 61 _c
381 61 418 79 446 117 _c
473 155 487 207 487 273 _c
181 464 _m
199 496 223 520 252 536 _c
281 552 316 560 356 560 _c
422 560 476 533 518 481 _c
559 428 580 359 580 273 _c
}_e{580 187 559 117 518 65 _c
476 13 422 -13 356 -13 _c
316 -13 281 -5 252 10 _c
223 25 199 49 181 82 _c
181 0 _l
91 0 _l
91 760 _l
181 760 _l
181 464 _l
_cl}_e}_d
/c{{550 0 55 -13 488 560 _sc
488 526 _m
488 442 _l
462 456 437 466 411 473 _c
385 480 360 484 334 484 _c
276 484 230 465 198 428 _c
166 391 150 339 150 273 _c
150 206 166 154 198 117 _c
230 80 276 62 334 62 _c
360 62 385 65 411 72 _c
437 79 462 90 488 104 _c
488 21 _l
462 9 436 0 410 -5 _c
383 -10 354 -13 324 -13 _c
242 -13 176 12 128 64 _c
}_e{79 115 55 185 55 273 _c
55 362 79 432 128 483 _c
177 534 244 560 330 560 _c
358 560 385 557 411 551 _c
437 545 463 537 488 526 _c
_cl}_e}_d
/d{{635 0 55 -13 544 760 _sc
454 464 _m
454 760 _l
544 760 _l
544 0 _l
454 0 _l
454 82 _l
435 49 411 25 382 10 _c
353 -5 319 -13 279 -13 _c
213 -13 159 13 117 65 _c
75 117 55 187 55 273 _c
55 359 75 428 117 481 _c
159 533 213 560 279 560 _c
319 560 353 552 382 536 _c
411 520 435 496 454 464 _c
148 273 _m
148 207 161 155 188 117 _c
215 79 253 61 301 61 _c
}_e{348 61 385 79 413 117 _c
440 155 454 207 454 273 _c
454 339 440 390 413 428 _c
385 466 348 485 301 485 _c
253 485 215 466 188 428 _c
161 390 148 339 148 273 _c
_cl}_e}_d
/f{352 0 23 0 371 760 _sc
371 760 _m
371 685 _l
285 685 _l
253 685 230 678 218 665 _c
205 652 199 629 199 595 _c
199 547 _l
347 547 _l
347 477 _l
199 477 _l
199 0 _l
109 0 _l
109 477 _l
23 477 _l
23 547 _l
109 547 _l
109 585 _l
109 645 123 690 151 718 _c
179 746 224 760 286 760 _c
371 760 _l
_cl}_d
/h{634 0 91 0 549 760 _sc
549 330 _m
549 0 _l
459 0 _l
459 327 _l
459 379 448 417 428 443 _c
408 469 378 482 338 482 _c
289 482 251 466 223 435 _c
195 404 181 362 181 309 _c
181 0 _l
91 0 _l
91 760 _l
181 760 _l
181 462 _l
202 494 227 519 257 535 _c
286 551 320 560 358 560 _c
420 560 468 540 500 501 _c
532 462 549 405 549 330 _c
_cl}_d
/i{278 0 94 0 184 760 _sc
94 547 _m
184 547 _l
184 0 _l
94 0 _l
94 547 _l
94 760 _m
184 760 _l
184 646 _l
94 646 _l
94 760 _l
_cl}_d
/l{278 0 94 0 184 760 _sc
94 760 _m
184 760 _l
184 0 _l
94 0 _l
94 760 _l
_cl}_d
/t{392 0 27 0 368 702 _sc
183 702 _m
183 547 _l
368 547 _l
368 477 _l
183 477 _l
183 180 _l
183 135 189 106 201 94 _c
213 81 238 75 276 75 _c
368 75 _l
368 0 _l
276 0 _l
206 0 158 13 132 39 _c
106 65 93 112 93 180 _c
93 477 _l
27 477 _l
27 547 _l
93 547 _l
93 702 _l
183 702 _l
_cl}_d
/u{634 0 85 -13 543 560 _sc
85 216 _m
85 547 _l
175 547 _l
175 219 _l
175 167 185 129 205 103 _c
225 77 255 64 296 64 _c
344 64 383 79 411 110 _c
439 141 453 183 453 237 _c
453 547 _l
543 547 _l
543 0 _l
453 0 _l
453 84 _l
431 50 405 26 377 10 _c
348 -5 315 -13 277 -13 _c
214 -13 166 6 134 45 _c
101 83 85 140 85 216 _c
311 560 _m
311 560 _l
_cl}_d
/w{818 0 42 0 776 547 _sc
42 547 _m
132 547 _l
244 120 _l
356 547 _l
462 547 _l
574 120 _l
686 547 _l
776 547 _l
633 0 _l
527 0 _l
409 448 _l
291 0 _l
185 0 _l
42 547 _l
_cl}_d
/minus{838 0 106 272 732 355 _sc
106 355 _m
732 355 _l
732 272 _l
106 272 _l
106 355 _l
_cl}_d
end readonly def

/BuildGlyph
 {exch begin
 CharStrings exch
 2 copy known not{pop /.notdef}if
 true 3 1 roll get exec
 end}_d

/BuildChar {
 1 index /Encoding get exch get
 1 index /BuildGlyph get exec
}_d

FontName currentdict end definefont pop
end
%%EndProlog
mpldict begin
-48.041 306.008 translate
708.082 179.984 0 0 clipbox
gsave
0 0 m
708.081923 0 l
708.081923 179.98375 l
0 179.98375 l
cl
1.000 setgray
fill
grestore
gsave
48.965625 37.54375 m
201.777366 37.54375 l
201.777366 172.78375 l
48.965625 172.78375 l
cl
1.000 setgray
fill
grestore
0.800 setlinewidth
1 setlinejoin
0 setlinecap
[] 0 setdash
0.000 setgray
gsave
/o {
gsave
newpath
translate
0.8 setlinewidth
1 setlinejoin
0 setlinecap
0 0 m
0 -3.5 l

gsave
0.000 setgray
fill
grestore
stroke
grestore
} bind def
63.2917 37.5438 o
grestore
/DejaVuSans findfont
10.000 scalefont
setfont
gsave
52.744851 22.950000 translate
0.000000 rotate
0.000000 0 m /minus glyphshow
8.378906 0 m /five glyphshow
14.741211 0 m /zero glyphshow
grestore
gsave
/o {
gsave
newpath
translate
0.8 setlinewidth
1 setlinejoin
0 setlinecap
0 0 m
0 -3.5 l

gsave
0.000 setgray
fill
grestore
stroke
grestore
} bind def
111.045 37.5438 o
grestore
gsave
107.865707 22.950000 translate
0.000000 rotate
0.000000 0 m /zero glyphshow
grestore
gsave
/o {
gsave
newpath
translate
0.8 setlinewidth
1 setlinejoin
0 setlinecap
0 0 m
0 -3.5 l

gsave
0.000 setgray
fill
grestore
stroke
grestore
} bind def
158.799 37.5438 o
grestore
gsave
152.439689 22.950000 translate
0.000000 rotate
0.000000 0 m /five glyphshow
6.362305 0 m /zero glyphshow
grestore
gsave
117.660558 9.278125 translate
0.000000 rotate
0.000000 0 m /f glyphshow
3.520508 0 m /u glyphshow
9.858398 0 m /l glyphshow
12.636719 0 m /l glyphshow
grestore
gsave
/o {
gsave
newpath
translate
0.8 setlinewidth
1 setlinejoin
0 setlinecap
-0 0 m
-3.5 0 l

gsave
0.000 setgray
fill
grestore
stroke
grestore
} bind def
48.9656 50.2225 o
grestore
gsave
20.871875 46.425625 translate
0.000000 rotate
0.000000 0 m /minus glyphshow
8.378906 0 m /five glyphshow
14.741211 0 m /zero glyphshow
grestore
gsave
/o {
gsave
newpath
translate
0.8 setlinewidth
1 setlinejoin
0 setlinecap
-0 0 m
-3.5 0 l

gsave
0.000 setgray
fill
grestore
stroke
grestore
} bind def
48.9656 92.485 o
grestore
gsave
35.606250 88.688125 translate
0.000000 rotate
0.000000 0 m /zero glyphshow
grestore
gsave
/o {
gsave
newpath
translate
0.8 setlinewidth
1 setlinejoin
0 setlinecap
-0 0 m
-3.5 0 l

gsave
0.000 setgray
fill
grestore
stroke
grestore
} bind def
48.9656 134.748 o
grestore
gsave
29.246875 130.950625 translate
0.000000 rotate
0.000000 0 m /five glyphshow
6.362305 0 m /zero glyphshow
grestore
gsave
14.793750 97.452813 translate
90.000000 rotate
0.000000 0 m /f glyphshow
3.520508 0 m /u glyphshow
9.858398 0 m /l glyphshow
12.636719 0 m /l glyphshow
grestore
1.500 setlinewidth
2 setlinecap
0.549 0.337 0.294 setrgbcolor
gsave
152.8 135.2 48.97 37.54 clipbox
106.270028 37.54375 m
106.270028 172.78375 l
stroke
grestore
0.800 setlinewidth
0 setlinejoin
0.000 setgray
gsave
48.965625 37.54375 m
48.965625 172.78375 l
stroke
grestore
gsave
48.965625 37.54375 m
201.777366 37.54375 l
stroke
grestore
/DejaVuSans findfont
16.000 scalefont
setfont
gsave
58.516359 147.426250 translate
0.000000 rotate
0.000000 0 m /parenleft glyphshow
6.242188 0 m /a glyphshow
16.046875 0 m /parenright glyphshow
grestore
gsave
215.333811 37.54375 m
368.145552 37.54375 l
368.145552 172.78375 l
215.333811 172.78375 l
cl
1.000 setgray
fill
grestore
0.480 setlinewidth
1 setlinejoin
0 setlinecap
1.000 setgray
gsave
152.8 135.2 215.3 37.54 clipbox
/o {
gsave
newpath
translate
0.5 setlinewidth
1 setlinejoin
0 setlinecap
0 -3 m
0.795609 -3 1.55874 -2.683901 2.12132 -2.12132 c
2.683901 -1.55874 3 -0.795609 3 0 c
3 0.795609 2.683901 1.55874 2.12132 2.12132 c
1.55874 2.683901 0.795609 3 0 3 c
-0.795609 3 -1.55874 2.683901 -2.12132 2.12132 c
-2.683901 1.55874 -3 0.795609 -3 0 c
-3 -0.795609 -2.683901 -1.55874 -2.12132 -2.12132 c
-1.55874 -2.683901 -0.795609 -3 0 -3 c
cl

gsave
0.122 0.467 0.706 setrgbcolor
fill
grestore
stroke
grestore
} bind def
256.604 81.2854 o
256.604 81.2854 o
274.012 101.232 o
287.279 104.521 o
285.077 106.099 o
292.252 110.08 o
287.386 109.655 o
290.202 114.039 o
282.838 106.028 o
285.866 103.27 o
291.894 116.338 o
278.288 109.549 o
286.575 108.524 o
301.306 116.935 o
296.59 119.354 o
298.517 116.663 o
301.907 121.78 o
279.738 97.8473 o
303.816 119.156 o
307.198 122.584 o
297.203 115.734 o
304.167 123.81 o
293.552 110.073 o
288.976 110.685 o
304.169 121.159 o
305.682 129.26 o
297.665 113.713 o
275.06 98.5978 o
269.847 89.0939 o
296.311 114.372 o
302.75 120.414 o
290.851 107.683 o
290.454 107.331 o
296.578 115.412 o
300.992 117.183 o
300.414 122.708 o
278.372 97.8016 o
285.325 111.444 o
283.914 112.938 o
282.741 103.514 o
299.436 118.365 o
293.277 115.065 o
292.141 109.086 o
283.589 107.667 o
297.304 116.052 o
302.083 122.88 o
299.478 116.914 o
300.112 116.639 o
286.833 108.883 o
283.677 101.333 o
289.493 106.481 o
301.462 119.805 o
276.193 99.3095 o
289.031 115.665 o
292.448 115.364 o
296.066 117.861 o
301.522 122.454 o
300.016 118.558 o
305.321 124.18 o
291.396 108.164 o
301.311 116.94 o
297.518 113.582 o
293.671 115.234 o
309.481 125.707 o
295.869 112.124 o
288.592 110.92 o
290.219 107.52 o
279.452 102.838 o
293.799 120.759 o
294.328 116.82 o
268.751 91.7429 o
291.298 110.44 o
282.336 105.635 o
302.794 121.12 o
296.792 112.94 o
298.84 119.753 o
296.028 112.264 o
304.612 121.245 o
302.765 123.501 o
314.669 131.159 o
282.323 106.036 o
302.352 117.861 o
296.874 115.619 o
287.895 105.066 o
291.564 109.446 o
283.625 102.327 o
304.96 120.787 o
275.882 95.1442 o
290.154 107.066 o
283.157 103.213 o
303.699 119.053 o
280.615 107.076 o
289.99 108.055 o
293.478 113.496 o
293.115 110.506 o
283.173 101.242 o
283.858 103.057 o
302.098 119.824 o
296.628 118.855 o
292.815 110.33 o
315.431 132.43 o
288.334 106.102 o
290.681 108.83 o
287.572 109.466 o
298.845 115.614 o
288.005 106.849 o
285.555 102.995 o
290.655 110.228 o
276.243 94.7537 o
280.558 100.478 o
305.334 121.47 o
293.533 114.161 o
285.157 102.643 o
302.106 118.17 o
297.319 113.407 o
306.583 121.606 o
286.827 104.121 o
302.161 119.819 o
318.369 133.189 o
303.783 122.765 o
282.773 104.232 o
312.956 128.183 o
296.729 116.975 o
282.901 109.098 o
296.656 117.317 o
304.36 119.638 o
302.809 118.569 o
307.888 122.797 o
293.123 111.88 o
298.561 117.413 o
291.226 108.014 o
291.671 112.678 o
297.783 114.436 o
294.418 113.55 o
297.772 113.807 o
290.277 107.174 o
292.206 108.881 o
287.723 111.172 o
275.043 94.2837 o
310.66 131.476 o
290.248 107.426 o
284.235 107.155 o
300.205 119.634 o
299.485 117.912 o
316.935 133.064 o
316.035 129.97 o
294.953 116.791 o
303.636 122.557 o
299.449 115.413 o
295.006 119.322 o
288.441 110.409 o
307.705 124.18 o
271.809 96.0756 o
298.228 114.211 o
303.436 122.867 o
299.054 114.942 o
291.765 111.821 o
295.484 114.02 o
277.668 104.652 o
307.458 125.614 o
316.667 132.56 o
289.778 106.733 o
275.458 95.6378 o
293.43 115.821 o
289.902 108.445 o
300.731 118.127 o
279.971 100.407 o
294.467 114.636 o
294.381 110.807 o
286.907 105.793 o
297.98 115.589 o
292.563 116.747 o
305.03 121.051 o
306.184 121.697 o
300.54 124.135 o
277.912 100.807 o
303.531 118.904 o
288.605 116.963 o
293.772 113.163 o
303.479 122.101 o
302.845 122.518 o
298.11 115.565 o
309.242 124.388 o
297.42 113.496 o
300.855 123.913 o
278.078 96.7265 o
293.468 111.973 o
290.403 111.687 o
276.592 95.063 o
284.972 104.633 o
292.679 109.3 o
286.34 103.69 o
289.927 106.864 o
308.232 123.075 o
276.046 97.6647 o
275.335 97.7171 o
282.565 102.773 o
301.9 123.974 o
306.826 121.82 o
312.868 129.473 o
295.084 111.429 o
293.019 116.12 o
289.002 109.185 o
310.012 124.801 o
296.63 112.796 o
312.365 127.221 o
287.316 104.553 o
296.53 112.708 o
284.384 101.959 o
299.77 116.248 o
291.251 110.413 o
292.062 108.754 o
277.16 99.0712 o
285.09 105.103 o
296.208 112.823 o
276.544 100.669 o
281.369 99.7575 o
307.605 123.986 o
295.048 120.361 o
305.485 122.523 o
306.595 122.015 o
303.25 123.724 o
297.961 119.012 o
286.338 103.688 o
281.757 102.136 o
289.195 109.53 o
285.625 103.057 o
301.14 116.788 o
286.309 103.663 o
289.723 110.338 o
266.828 90.9213 o
282.842 102.664 o
285.255 104.878 o
298.458 114.414 o
293.505 115.39 o
298.502 119.476 o
286.313 103.666 o
299.858 119.88 o
301.13 118.103 o
308.515 125.074 o
312.644 129.057 o
282.342 100.151 o
308.835 123.803 o
287.874 105.955 o
286.624 106.633 o
306.488 123.795 o
280.233 98.9343 o
310.381 127.044 o
291.216 108.005 o
282.645 100.42 o
280.563 102.838 o
289.726 106.687 o
302.893 121.815 o
301.948 117.503 o
303.508 126.981 o
303.701 126.917 o
311.578 129.052 o
303.393 118.782 o
290.792 107.63 o
304.952 125.984 o
293.027 109.608 o
296.926 113.058 o
279.031 104.611 o
301.993 124.571 o
302.163 117.694 o
283.526 101.2 o
293.102 112.343 o
288.387 107.199 o
298.905 116.047 o
280.644 103.005 o
293.38 114.286 o
293 115.187 o
305.647 120.777 o
308.45 125.806 o
293.379 114.135 o
298.847 115.663 o
294.345 114.472 o
296.588 113.488 o
302.463 118.936 o
290.939 107.76 o
291.337 108.431 o
291.023 111.339 o
295.74 117.242 o
287.641 107.547 o
289.419 109.593 o
293.323 109.87 o
300.46 119.506 o
312.524 127.548 o
297.386 113.466 o
299.936 117.748 o
292.863 117.327 o
282.72 103.056 o
300.647 117.214 o
282.777 108.012 o
304.228 120.574 o
312.463 130.504 o
284.368 105.218 o
299.562 120.865 o
300.154 117.739 o
283.568 101.237 o
283.432 106.088 o
284.346 103.252 o
295.613 111.897 o
307.263 122.207 o
272.755 102.648 o
277.022 98.1397 o
285.366 107.101 o
283.417 105.084 o
277.78 100.118 o
289.9 106.841 o
302.543 122.253 o
310.751 125.294 o
283.39 104.983 o
286.592 111.672 o
280.533 103.644 o
278.991 97.1863 o
299.354 115.207 o
289.528 112.952 o
300.152 124.855 o
288.853 108.448 o
287.553 111.735 o
292.469 113.464 o
290.149 107.06 o
290 111.474 o
290.141 111.512 o
285.486 109.912 o
293.694 111.627 o
280.707 107.157 o
293.04 111.006 o
290.091 108.572 o
292.085 111.86 o
285.727 115.77 o
306.44 121.479 o
300.792 119.241 o
281.545 105.532 o
293.26 109.814 o
290.242 109.591 o
288.33 106.542 o
309.04 123.78 o
274.445 94.61 o
304.381 119.656 o
289.304 106.793 o
302.729 123.272 o
305.544 121.668 o
296.081 112.311 o
275.158 95.7172 o
292.632 116.458 o
272.298 91.2628 o
307.474 122.542 o
292.248 117.371 o
280.955 98.9765 o
291.459 111.27 o
272.875 103.26 o
290.832 120.392 o
280.81 98.7956 o
297.491 113.645 o
287.961 108.36 o
312.312 127.348 o
293.455 109.987 o
286.049 110.761 o
304.797 123.305 o
290.666 109.167 o
298.234 114.216 o
307.267 123.25 o
288.347 105.466 o
283.24 100.946 o
293.818 114.325 o
292.219 114.604 o
302.475 118.091 o
291.658 114.223 o
303.737 119.425 o
297.627 115.471 o
284.244 108.398 o
307.915 122.784 o
288.513 112.309 o
303.256 120.813 o
303.751 121.913 o
293.885 113.258 o
286.834 104.127 o
275.991 99.3975 o
296.192 118.837 o
304.016 122.824 o
302.927 118.713 o
298.173 115.434 o
250.79 76.6619 o
299.959 115.743 o
312.707 130.222 o
291.982 120.456 o
288.481 106.415 o
285.925 108.504 o
302.45 121.901 o
288.401 105.943 o
304.286 123.413 o
299.159 117.457 o
307.004 121.977 o
291.335 114.323 o
279.817 101.249 o
292.834 109.437 o
291.201 113.26 o
304.971 120.179 o
296.337 112.538 o
310.228 126.124 o
264.056 83.9683 o
300.27 124.471 o
300.377 116.113 o
309.833 128.998 o
301.094 116.747 o
297.056 122.126 o
287.073 105.644 o
309.707 124.37 o
313.156 129.226 o
304.796 120.774 o
306.459 121.496 o
295.663 116.994 o
309.072 124.15 o
302.135 122.344 o
284.109 103.723 o
295.302 116.955 o
314.228 132.907 o
299.334 117.014 o
295.13 113.276 o
314.958 130.173 o
295.451 111.753 o
298.29 115.329 o
299.482 116.438 o
288.011 114.015 o
300.922 122.564 o
288.013 111.006 o
280.453 98.9123 o
305.05 122.537 o
307.439 124.872 o
295.449 111.752 o
291.545 120.4 o
294.752 113.155 o
285.688 106.163 o
295.829 112.088 o
295.187 112.445 o
282.552 111.287 o
297.577 116.155 o
298.248 121.575 o
281.568 104.166 o
286.124 104.699 o
289.831 112.832 o
284.332 101.913 o
288.567 105.661 o
293.319 113.488 o
282.546 105.066 o
296.179 112.397 o
306.119 121.195 o
295.272 113.625 o
289.744 110.551 o
294.954 117.64 o
296.97 124.072 o
312.062 126.454 o
291.99 108.69 o
287.849 109.238 o
302.75 121.125 o
299.418 115.264 o
292.506 115.385 o
280.882 100.843 o
303.575 119.213 o
282.128 100.234 o
280.015 102.072 o
286.775 104.075 o
284.177 101.776 o
299.34 118.578 o
299.571 118.936 o
305.64 121.398 o
295.77 118.637 o
294.926 112.132 o
279.732 106.023 o
289.373 106.912 o
294.229 110.671 o
299.231 119.66 o
288.783 108.437 o
280.697 102.625 o
300.706 116.747 o
301.869 117.433 o
306.988 130.158 o
315.905 133.471 o
285.818 108.489 o
319.588 133.307 o
300.748 123.156 o
285.793 109.133 o
305.879 120.982 o
310.45 125.027 o
288.936 113.885 o
290.122 109.596 o
298.809 119.055 o
307.137 125.014 o
308.862 124.823 o
298.677 117.342 o
277.158 107.147 o
304.7 120.647 o
319.897 143.21 o
308.708 124.782 o
296.116 113.469 o
300.156 120.098 o
282.793 101.345 o
295.186 113.675 o
279.538 97.6698 o
284.915 108.749 o
256.129 84.1965 o
279.769 100.064 o
287.289 104.53 o
278.21 104.947 o
296.116 116.749 o
311.248 129.96 o
317.496 134.888 o
305.733 124.603 o
330.046 145.095 o
304.2 130.844 o
312.942 137.652 o
308.629 127.36 o
330.407 142.689 o
305.506 124.204 o
308.108 127.051 o
305.082 120.277 o
295.285 114.362 o
286.896 105.067 o
307.898 124.904 o
335.157 150.723 o
318.067 133.706 o
300.194 116.855 o
301.373 116.994 o
297.466 114.287 o
291.757 112.582 o
288.321 106.834 o
295.877 115.153 o
278.777 98.5438 o
297.249 115.606 o
290.447 114.884 o
286.193 112.13 o
298.584 118.01 o
266.799 86.3958 o
281.251 99.9722 o
271.989 95.369 o
287.211 104.499 o
309.51 124.195 o
309.416 126.124 o
320.927 137.936 o
266.822 86.4161 o
296.824 117.413 o
291.69 111.515 o
280.46 100.527 o
280.208 101.913 o
277.396 95.7747 o
292.899 116.003 o
297.642 114.277 o
298.868 114.778 o
282.416 104.482 o
286.781 104.08 o
274.992 103.294 o
279.282 97.4432 o
288.683 107.074 o
266.871 88.6476 o
280.019 98.0958 o
298.276 114.658 o
311.494 127.066 o
315.334 131.426 o
317.687 131.432 o
300.391 121.114 o
286.34 106.606 o
288.546 107.272 o
282.059 99.9012 o
307.183 124.49 o
286.023 106.073 o
291.106 112.134 o
304.797 122.904 o
286.8 104.097 o
289.178 108.876 o
303.18 119.793 o
291.917 116.657 o
299.55 115.381 o
288.395 107.894 o
295.249 112.489 o
269.391 88.6898 o
277.268 95.6614 o
301.39 125.462 o
307.04 122.01 o
301.304 122.687 o
300.683 116.399 o
279.366 101.455 o
290.836 112.61 o
280.957 100.353 o
283.026 102.52 o
287.446 106.405 o
287.57 105.968 o
291.99 116.948 o
290.215 107.12 o
295.191 113.915 o
295.126 116.444 o
298.729 115.751 o
315.114 131.392 o
295.841 114.445 o
276.881 95.3183 o
294.935 111.922 o
294.232 114.521 o
300.994 116.659 o
284.573 102.126 o
287.767 110.387 o
272.598 95.4755 o
283.687 101.342 o
295.99 112.23 o
295.675 115.648 o
284.584 102.136 o
286.42 107.282 o
280.54 98.5573 o
290.874 107.845 o
295.365 112.13 o
294.232 114.561 o
289.839 108.874 o
302.528 118.017 o
283.746 104.946 o
291.18 119.345 o
292.498 109.14 o
289.09 108.765 o
287.845 110.271 o
314.581 128.684 o
327.498 142.487 o
305.888 124.554 o
301.17 116.815 o
276.907 101.648 o
279.985 103.913 o
290.544 107.41 o
291.02 116.284 o
290.89 111.632 o
284.141 106.175 o
310.881 130.138 o
302.15 122.551 o
284.76 106.247 o
293.132 117.912 o
277.633 103.079 o
302.423 119.519 o
283.278 108.883 o
301.388 122.669 o
292.435 109.084 o
294.45 111.64 o
286.063 121.509 o
278.537 97.636 o
311.678 127.609 o
297.443 118.762 o
283.453 103.117 o
273.227 100.537 o
276.588 95.888 o
282.158 107.733 o
287.188 108.198 o
294.63 115.88 o
300.022 119.115 o
299.638 116.87 o
277.585 98.6722 o
292.645 112.592 o
293.86 114.35 o
284.792 102.32 o
300.33 116.13 o
289.549 106.53 o
274.778 93.457 o
286.217 108.868 o
294.84 117.273 o
297.124 115.153 o
292.811 109.417 o
293.677 113.38 o
303.829 121.736 o
295.247 116.649 o
287.879 109.219 o
293.976 111.048 o
288.151 106.92 o
290.632 107.488 o
308.155 123.731 o
296.607 121.281 o
296.429 116.363 o
308.805 125.615 o
277.908 107.074 o
311.84 129.896 o
280.13 98.1938 o
289.921 109.988 o
282.191 102.205 o
301.732 121.484 o
281.746 99.624 o
287.006 108.993 o
283.853 102.799 o
277.824 96.1534 o
286.752 105.874 o
285.83 107.405 o
272.896 91.7919 o
283.396 105.081 o
290.796 114.756 o
303.77 127.294 o
282.071 102.09 o
293.999 112.041 o
297.986 113.997 o
318.944 132.741 o
296.756 115.956 o
308.436 123.245 o
293.472 111.983 o
294.507 113.006 o
304.801 120.04 o
273.133 97.4196 o
290.255 107.155 o
278.89 97.0967 o
294.305 110.832 o
287.402 104.63 o
295.591 112.073 o
288.731 110.041 o
306.715 122.31 o
291.17 107.965 o
302.969 120.059 o
297.923 114.174 o
300.519 120.464 o
320.856 134.829 o
291.002 112.6 o
309.63 126.513 o
301.688 117.273 o
297.799 115.31 o
286.407 103.749 o
288.177 105.316 o
293.107 109.679 o
312.547 128.887 o
273.784 92.578 o
282.495 112.1 o
299.105 114.987 o
283.469 106.996 o
292.041 115.964 o
289.451 106.443 o
292.92 114.357 o
296.494 119.9 o
285.99 107.776 o
286.98 109.427 o
280.393 104.69 o
286.598 106.763 o
282.498 100.29 o
293.543 110.065 o
298.868 114.778 o
296.251 116.368 o
288.017 105.277 o
293.988 110.458 o
304.343 121.558 o
295.209 113.373 o
296.53 113.4 o
284.976 103.867 o
304.946 123.884 o
289.53 108.665 o
291.659 110.46 o
280.027 100.136 o
305.372 121.036 o
304.125 122.207 o
281.553 104.466 o
317.901 136.201 o
304.121 121.303 o
308.293 123.751 o
303.311 119.312 o
308.536 123.955 o
303.67 119.81 o
307.193 129.007 o
306.885 128.511 o
311.042 128.256 o
331.971 146.212 o
300.769 122.884 o
306.396 123.487 o
280.756 100.476 o
297.846 116.855 o
286.857 108.382 o
299.554 115.385 o
301.101 117.487 o
287.917 108.335 o
303.867 126.173 o
273.758 102.107 o
297.94 113.956 o
292.089 119.92 o
292.089 119.92 o
grestore
0.800 setlinewidth
0.000 setgray
gsave
/o {
gsave
newpath
translate
0.8 setlinewidth
1 setlinejoin
0 setlinecap
0 0 m
0 -3.5 l

gsave
0.000 setgray
fill
grestore
stroke
grestore
} bind def
229.66 37.5438 o
grestore
/DejaVuSans findfont
10.000 scalefont
setfont
gsave
219.113037 22.950000 translate
0.000000 rotate
0.000000 0 m /minus glyphshow
8.378906 0 m /five glyphshow
14.741211 0 m /zero glyphshow
grestore
gsave
/o {
gsave
newpath
translate
0.8 setlinewidth
1 setlinejoin
0 setlinecap
0 0 m
0 -3.5 l

gsave
0.000 setgray
fill
grestore
stroke
grestore
} bind def
277.414 37.5438 o
grestore
gsave
274.233893 22.950000 translate
0.000000 rotate
0.000000 0 m /zero glyphshow
grestore
gsave
/o {
gsave
newpath
translate
0.8 setlinewidth
1 setlinejoin
0 setlinecap
0 0 m
0 -3.5 l

gsave
0.000 setgray
fill
grestore
stroke
grestore
} bind def
325.167 37.5438 o
grestore
gsave
318.807874 22.950000 translate
0.000000 rotate
0.000000 0 m /five glyphshow
6.362305 0 m /zero glyphshow
grestore
gsave
274.770931 9.278125 translate
0.000000 rotate
0.000000 0 m /w glyphshow
8.178711 0 m /i glyphshow
10.957031 0 m /d glyphshow
17.304688 0 m /t glyphshow
21.225586 0 m /h glyphshow
27.563477 0 m /four glyphshow
grestore
gsave
/o {
gsave
newpath
translate
0.8 setlinewidth
1 setlinejoin
0 setlinecap
-0 0 m
-3.5 0 l

gsave
0.000 setgray
fill
grestore
stroke
grestore
} bind def
215.334 50.2225 o
grestore
gsave
/o {
gsave
newpath
translate
0.8 setlinewidth
1 setlinejoin
0 setlinecap
-0 0 m
-3.5 0 l

gsave
0.000 setgray
fill
grestore
stroke
grestore
} bind def
215.334 92.485 o
grestore
gsave
/o {
gsave
newpath
translate
0.8 setlinewidth
1 setlinejoin
0 setlinecap
-0 0 m
-3.5 0 l

gsave
0.000 setgray
fill
grestore
stroke
grestore
} bind def
215.334 134.748 o
grestore
1.500 setlinewidth
2 setlinecap
1.000 0.000 0.000 setrgbcolor
gsave
152.8 135.2 215.3 37.54 clipbox
215.333811 37.54375 m
368.145552 172.78375 l
stroke
grestore
0.800 setlinewidth
0 setlinejoin
0.000 setgray
gsave
215.333811 37.54375 m
215.333811 172.78375 l
stroke
grestore
gsave
215.333811 37.54375 m
368.145552 37.54375 l
stroke
grestore
/DejaVuSans findfont
16.000 scalefont
setfont
gsave
224.884545 147.426250 translate
0.000000 rotate
0.000000 0 m /parenleft glyphshow
6.242188 0 m /b glyphshow
16.398438 0 m /parenright glyphshow
grestore
gsave
381.701997 37.54375 m
534.513737 37.54375 l
534.513737 172.78375 l
381.701997 172.78375 l
cl
1.000 setgray
fill
grestore
0.480 setlinewidth
1 setlinejoin
0 setlinecap
1.000 setgray
gsave
152.8 135.2 381.7 37.54 clipbox
/o {
gsave
newpath
translate
0.5 setlinewidth
1 setlinejoin
0 setlinecap
0 -3 m
0.795609 -3 1.55874 -2.683901 2.12132 -2.12132 c
2.683901 -1.55874 3 -0.795609 3 0 c
3 0.795609 2.683901 1.55874 2.12132 2.12132 c
1.55874 2.683901 0.795609 3 0 3 c
-0.795609 3 -1.55874 2.683901 -2.12132 2.12132 c
-2.683901 1.55874 -3 0.795609 -3 0 c
-3 -0.795609 -2.683901 -1.55874 -2.12132 -2.12132 c
-1.55874 -2.683901 -0.795609 -3 0 -3 c
cl

gsave
0.122 0.467 0.706 setrgbcolor
fill
grestore
stroke
grestore
} bind def
424.014 81.2854 o
424.014 81.2854 o
437.02 101.232 o
446.318 104.521 o
446.689 106.099 o
445.17 110.08 o
442.704 109.655 o
445.738 114.039 o
438.58 106.028 o
444.976 103.27 o
448.549 116.338 o
444.387 109.549 o
444.456 108.524 o
452.639 116.935 o
447.415 119.354 o
447.791 116.663 o
455.739 121.78 o
440.897 97.8473 o
454.683 119.156 o
462.043 122.584 o
451.04 115.734 o
469.37 123.81 o
447.799 110.073 o
443.323 110.685 o
463.344 121.159 o
459.456 129.26 o
460.494 113.713 o
440.571 98.5978 o
417.265 89.0939 o
454.782 114.372 o
463.743 120.414 o
446.863 107.683 o
441.879 107.331 o
454.276 115.412 o
459.9 117.183 o
461.544 122.708 o
435.476 97.8016 o
437.604 111.444 o
438.303 112.938 o
437.622 103.514 o
456.956 118.365 o
448.23 115.065 o
455.865 109.086 o
437.849 107.667 o
446.38 116.052 o
458.039 122.88 o
453.434 116.914 o
451.208 116.639 o
441.656 108.883 o
442.771 101.333 o
448.12 106.481 o
451.56 119.805 o
434.619 99.3095 o
449.287 115.665 o
446.783 115.364 o
456.803 117.861 o
452.744 122.454 o
449.697 118.558 o
465.422 124.18 o
445.679 108.164 o
455.256 116.94 o
455.18 113.582 o
449.629 115.234 o
464.853 125.707 o
457.113 112.124 o
448.038 110.92 o
452.83 107.52 o
436.46 102.838 o
448.609 120.759 o
445.982 116.82 o
434.076 91.7429 o
452.051 110.44 o
435.484 105.635 o
457.968 121.12 o
450.097 112.94 o
452.236 119.753 o
457.332 112.264 o
461.143 121.245 o
464.241 123.501 o
468.176 131.159 o
435.274 106.036 o
453.029 117.861 o
444.393 115.619 o
441.367 105.066 o
444.233 109.446 o
438.697 102.327 o
460.669 120.787 o
436.069 95.1442 o
451.432 107.066 o
438.007 103.213 o
461.181 119.053 o
437.933 107.076 o
448.725 108.055 o
450.167 113.496 o
452.824 110.506 o
444.76 101.242 o
439.308 103.057 o
457.678 119.824 o
459.831 118.855 o
451.226 110.33 o
463.323 132.43 o
446.716 106.102 o
446.8 108.83 o
451.069 109.466 o
459.859 115.614 o
445.1 106.849 o
440.609 102.995 o
445.419 110.228 o
434.982 94.7537 o
438.768 100.478 o
454.687 121.47 o
449.43 114.161 o
449.354 102.643 o
458.977 118.17 o
450.895 113.407 o
459.689 121.606 o
442.708 104.121 o
465.827 119.819 o
475.15 133.189 o
460.692 122.765 o
431.973 104.232 o
469.168 128.183 o
459.831 116.975 o
450.901 109.098 o
458.221 117.317 o
458.952 119.638 o
463.069 118.569 o
467.874 122.797 o
443.977 111.88 o
461.695 117.413 o
447.766 108.014 o
448.112 112.678 o
456.436 114.436 o
452.8 113.55 o
448.815 113.807 o
454.633 107.174 o
446.336 108.881 o
445.402 111.172 o
430.344 94.2837 o
466.371 131.476 o
445.789 107.426 o
444.683 107.155 o
450.221 119.634 o
458.186 117.912 o
467.003 133.064 o
471.792 129.97 o
449.774 116.791 o
456.908 122.557 o
459.848 115.413 o
456.24 119.322 o
452.515 110.409 o
470.373 124.18 o
438.363 96.0756 o
449.338 114.211 o
463.168 122.867 o
449.186 114.942 o
451.944 111.821 o
451.157 114.02 o
436.921 104.652 o
465.729 125.614 o
475.643 132.56 o
449.151 106.733 o
424.17 95.6378 o
452.041 115.821 o
449.953 108.445 o
459.997 118.127 o
442.321 100.407 o
447.604 114.636 o
452.07 110.807 o
442.873 105.793 o
454.322 115.589 o
453.6 116.747 o
460.356 121.051 o
460.962 121.697 o
455.827 124.135 o
432.241 100.807 o
461.487 118.904 o
441.851 116.963 o
451.426 113.163 o
455.516 122.101 o
461.886 122.518 o
451.398 115.565 o
462.492 124.388 o
448.706 113.496 o
460.306 123.913 o
432.672 96.7265 o
448.727 111.973 o
445.91 111.687 o
429.274 95.063 o
441.129 104.633 o
450.605 109.3 o
443.856 103.69 o
443.459 106.864 o
465.993 123.075 o
438.225 97.6647 o
429.15 97.7171 o
443.438 102.773 o
459.317 123.974 o
460.799 121.82 o
469.084 129.473 o
446.492 111.429 o
452.379 116.12 o
448.882 109.185 o
459.984 124.801 o
448.357 112.796 o
469.276 127.221 o
445.424 104.553 o
454.328 112.708 o
441.066 101.959 o
458.356 116.248 o
448.057 110.413 o
450.194 108.754 o
435.813 99.0712 o
445.169 105.103 o
452.45 112.823 o
436.863 100.669 o
440.531 99.7575 o
460.333 123.986 o
454.612 120.361 o
454.179 122.523 o
460.671 122.015 o
449.228 123.724 o
451.224 119.012 o
434.812 103.688 o
435.732 102.136 o
444.133 109.53 o
443.486 103.057 o
460.56 116.788 o
443.213 103.663 o
448.737 110.338 o
435.083 90.9213 o
447.908 102.664 o
448.265 104.878 o
458.018 114.414 o
457.082 115.39 o
457.021 119.476 o
442.252 103.666 o
453.535 119.88 o
461.006 118.103 o
467.328 125.074 o
465.055 129.057 o
441.763 100.151 o
472.724 123.803 o
440.72 105.955 o
444.729 106.633 o
460.033 123.795 o
433.377 98.9343 o
460.306 127.044 o
444.448 108.005 o
433.478 100.42 o
444.28 102.838 o
447.468 106.687 o
457.277 121.815 o
451.722 117.503 o
461.707 126.981 o
469.743 126.917 o
469.557 129.052 o
458.685 118.782 o
443.742 107.63 o
463.351 125.984 o
445.938 109.608 o
459.346 113.058 o
435.847 104.611 o
464.115 124.571 o
456.91 117.694 o
444.33 101.2 o
452.555 112.343 o
445.044 107.199 o
450.912 116.047 o
429.83 103.005 o
456.156 114.286 o
452.572 115.187 o
463.458 120.777 o
465.462 125.806 o
446.806 114.135 o
453.063 115.663 o
452.293 114.472 o
450.154 113.488 o
456.815 118.936 o
452.5 107.76 o
448.097 108.431 o
448.198 111.339 o
452.637 117.242 o
442.441 107.547 o
444.903 109.593 o
450.643 109.87 o
458.467 119.506 o
464.299 127.548 o
458.664 113.466 o
454.748 117.748 o
454.412 117.327 o
437.73 103.056 o
458.643 117.214 o
443.696 108.012 o
457.533 120.574 o
467.666 130.504 o
442.112 105.218 o
455.319 120.865 o
455.8 117.739 o
448.022 101.237 o
445.669 106.088 o
440.181 103.252 o
453 111.897 o
467.131 122.207 o
433.822 102.648 o
429.146 98.1397 o
441.258 107.101 o
437.404 105.084 o
438.741 100.118 o
447.327 106.841 o
458.201 122.253 o
469.672 125.294 o
435.02 104.983 o
444.028 111.672 o
438.447 103.644 o
436.109 97.1863 o
463.663 115.207 o
453.911 112.952 o
458.201 124.855 o
444.808 108.448 o
445.749 111.735 o
447.743 113.464 o
454.872 107.06 o
453.415 111.474 o
449.596 111.512 o
446.234 109.912 o
450.504 111.627 o
444.38 107.157 o
452.097 111.006 o
450.276 108.572 o
450.605 111.86 o
450.267 115.77 o
466.872 121.479 o
448.794 119.241 o
440.135 105.532 o
450.326 109.814 o
444.082 109.591 o
452.267 106.542 o
465.29 123.78 o
433.868 94.61 o
451.98 119.656 o
437.01 106.793 o
454.505 123.272 o
460.765 121.668 o
451.866 112.311 o
432.464 95.7172 o
452.223 116.458 o
429.851 91.2628 o
467.412 122.542 o
456.704 117.371 o
437.251 98.9765 o
448.998 111.27 o
429.694 103.26 o
447.287 120.392 o
432.728 98.7956 o
453.757 113.645 o
449.283 108.36 o
472.594 127.348 o
453.038 109.987 o
436.672 110.761 o
457.241 123.305 o
446.674 109.167 o
452.786 114.216 o
459.869 123.25 o
440.657 105.466 o
435.874 100.946 o
449.044 114.325 o
451.277 114.604 o
459.017 118.091 o
449.002 114.223 o
454.467 119.425 o
449.205 115.471 o
443.828 108.398 o
466.01 122.784 o
441.484 112.309 o
461.176 120.813 o
463.966 121.913 o
459.439 113.258 o
448.112 104.127 o
428.524 99.3975 o
448.947 118.837 o
461.479 122.824 o
461.307 118.713 o
446.636 115.434 o
408.133 76.6619 o
455.877 115.743 o
465.548 130.222 o
447.398 120.456 o
440.972 106.415 o
439.507 108.504 o
460.329 121.901 o
436.848 105.943 o
459.995 123.413 o
445.764 117.457 o
457.539 121.977 o
444.897 114.323 o
434.783 101.249 o
445.929 109.437 o
449.485 113.26 o
462.186 120.179 o
456.794 112.538 o
463.118 126.124 o
430.756 83.9683 o
450.385 124.471 o
455.373 116.113 o
468.405 128.998 o
451.72 116.747 o
455.848 122.126 o
442.813 105.644 o
466.297 124.37 o
466.272 129.226 o
460.627 120.774 o
457.737 121.496 o
446.888 116.994 o
459.686 124.15 o
465.708 122.344 o
430.533 103.723 o
459.002 116.955 o
465.458 132.907 o
452.884 117.014 o
454.121 113.276 o
459.019 130.173 o
448.706 111.753 o
451.061 115.329 o
454.011 116.438 o
449.854 114.015 o
454.731 122.564 o
447.793 111.006 o
443.847 98.9123 o
463.067 122.537 o
463.645 124.872 o
449.186 111.752 o
446.253 120.4 o
443.612 113.155 o
445.652 106.163 o
453.833 112.088 o
453.602 112.445 o
443.235 111.287 o
451.176 116.155 o
444.299 121.575 o
442.278 104.166 o
446.878 104.699 o
449.652 112.832 o
443.465 101.913 o
450.127 105.661 o
441.134 113.488 o
441.287 105.066 o
456.78 112.397 o
464.472 121.195 o
450.102 113.625 o
446.595 110.551 o
441.644 117.64 o
460.182 124.072 o
462.69 126.454 o
442.802 108.69 o
448.891 109.238 o
453.059 121.125 o
453.457 115.264 o
451.023 115.385 o
441.499 100.843 o
454.607 119.213 o
437.868 100.234 o
439.245 102.072 o
436.623 104.075 o
442.985 101.776 o
453.732 118.578 o
459.311 118.936 o
454.809 121.398 o
449.27 118.637 o
449.791 112.132 o
447.549 106.023 o
446.028 106.912 o
456.112 110.671 o
463.004 119.66 o
447.598 108.437 o
440.068 102.625 o
457.827 116.747 o
457.227 117.433 o
457.151 130.158 o
472.086 133.471 o
444.999 108.489 o
479.939 133.307 o
457.653 123.156 o
445.228 109.133 o
449.634 120.982 o
458.295 125.027 o
452.931 113.885 o
446.038 109.596 o
454.339 119.055 o
467.89 125.014 o
461.158 124.823 o
458.299 117.342 o
435.99 107.147 o
458.064 120.647 o
476.249 143.21 o
467.278 124.782 o
443.744 113.469 o
443.851 120.098 o
443.835 101.345 o
447.742 113.675 o
436.634 97.6698 o
441.742 108.749 o
416.917 84.1965 o
427.838 100.064 o
447.275 104.53 o
438.537 104.947 o
446.595 116.749 o
471.37 129.96 o
474.495 134.888 o
451.464 124.603 o
478.567 145.095 o
455.583 130.844 o
472.474 137.652 o
468.675 127.36 o
480.182 142.689 o
450.834 124.204 o
462.314 127.051 o
459.032 120.277 o
450.863 114.362 o
439.788 105.067 o
463.714 124.904 o
485.171 150.723 o
451.814 133.706 o
455.579 116.855 o
459.118 116.994 o
448.362 114.287 o
450.601 112.582 o
446.777 106.834 o
450.204 115.153 o
441.738 98.5438 o
452.842 115.606 o
449.858 114.884 o
444.17 112.13 o
450.909 118.01 o
426.038 86.3958 o
442.848 99.9722 o
431.853 95.369 o
436.575 104.499 o
445.764 124.195 o
472.743 126.124 o
470.13 137.936 o
430.3 86.4161 o
451.441 117.413 o
452.074 111.515 o
429.842 100.527 o
435.444 101.913 o
443.239 95.7747 o
443.041 116.003 o
449.55 114.277 o
457.984 114.778 o
441.423 104.482 o
449.275 104.08 o
435.215 103.294 o
434.915 97.4432 o
436.739 107.074 o
423.865 88.6476 o
439.711 98.0958 o
449.995 114.658 o
475.83 127.066 o
472.199 131.426 o
468.719 131.432 o
449.247 121.114 o
439.316 106.606 o
443.541 107.272 o
443.469 99.9012 o
456.27 124.49 o
447.795 106.073 o
441.702 112.134 o
456.979 122.904 o
448.527 104.097 o
446.93 108.876 o
456.051 119.793 o
453.459 116.657 o
452.066 115.381 o
445.841 107.894 o
455.869 112.489 o
426.462 88.6898 o
423.523 95.6614 o
458.519 125.462 o
462.681 122.01 o
453.766 122.687 o
449.216 116.399 o
439.327 101.455 o
449.688 112.61 o
441.86 100.353 o
442.408 102.52 o
444.288 106.405 o
444.129 105.968 o
444.269 116.948 o
449.277 107.12 o
448.582 113.915 o
454.267 116.444 o
455.777 115.751 o
465.216 131.392 o
454.183 114.445 o
439.301 95.3183 o
454.727 111.922 o
455.865 114.521 o
459.875 116.659 o
439.706 102.126 o
439.329 110.387 o
430.743 95.4755 o
434.011 101.342 o
458.112 112.23 o
447.631 115.648 o
441.436 102.136 o
451.866 107.282 o
447.115 98.5573 o
442.725 107.845 o
446.253 112.13 o
454.381 114.561 o
448.546 108.874 o
461.684 118.017 o
445.881 104.946 o
449.38 119.345 o
450.87 109.14 o
445.956 108.765 o
443.432 110.271 o
477.599 128.684 o
473.966 142.487 o
463.685 124.554 o
452.255 116.815 o
435.654 101.648 o
439.429 103.913 o
444.362 107.41 o
453.573 116.284 o
450.479 111.632 o
438.877 106.175 o
469.254 130.138 o
461.785 122.551 o
442.659 106.247 o
453.762 117.912 o
436.221 103.079 o
460.041 119.519 o
441.285 108.883 o
452.777 122.669 o
449.048 109.084 o
454.778 111.64 o
447.753 121.509 o
438.196 97.636 o
467.456 127.609 o
454.058 118.762 o
438.962 103.117 o
430.197 100.537 o
442.103 95.888 o
438.98 107.733 o
435.755 108.198 o
449.119 115.88 o
446.572 119.115 o
450.016 116.87 o
424.537 98.6722 o
436.174 112.592 o
442.126 114.35 o
436.821 102.32 o
455.271 116.13 o
447.421 106.53 o
436.405 93.457 o
442.552 108.868 o
446.534 117.273 o
457.317 115.153 o
445.728 109.417 o
456.23 113.38 o
453.529 121.736 o
459.651 116.649 o
442.941 109.219 o
449.461 111.048 o
430.468 106.92 o
445.226 107.488 o
460.677 123.731 o
451.566 121.281 o
451.157 116.363 o
460.326 125.615 o
442.936 107.074 o
461.538 129.896 o
443.74 98.1938 o
439.348 109.988 o
440.429 102.205 o
466.209 121.484 o
438.75 99.624 o
446.456 108.993 o
442.79 102.799 o
428.566 96.1534 o
445.264 105.874 o
437.043 107.405 o
429.14 91.7919 o
441.111 105.081 o
441.373 114.756 o
463.506 127.294 o
442.256 102.09 o
453.856 112.041 o
453.394 113.997 o
475.399 132.741 o
453.457 115.956 o
467.586 123.245 o
444.723 111.983 o
461.305 113.006 o
454.693 120.04 o
429.568 97.4196 o
450.148 107.155 o
439.728 97.0967 o
452.582 110.832 o
442.286 104.63 o
452.419 112.073 o
445.892 110.041 o
460.175 122.31 o
447.896 107.965 o
455.118 120.059 o
450.196 114.174 o
457.5 120.464 o
468.054 134.829 o
442.957 112.6 o
455.564 126.513 o
457.095 117.273 o
452.442 115.31 o
437.623 103.749 o
438.647 105.316 o
450.2 109.679 o
463.567 128.887 o
422.543 92.578 o
444.147 112.1 o
451.795 114.987 o
442.699 106.996 o
454.693 115.964 o
451.451 106.443 o
446.666 114.357 o
457.653 119.9 o
438.563 107.776 o
438.537 109.427 o
439.457 104.69 o
441.343 106.763 o
430.308 100.29 o
451.541 110.065 o
455.071 114.778 o
454.286 116.368 o
446.739 105.277 o
460.985 110.458 o
455.755 121.558 o
453.913 113.373 o
454.545 113.4 o
439.438 103.867 o
457.388 123.884 o
441.791 108.665 o
447.732 110.46 o
439.117 100.136 o
463.135 121.036 o
456.039 122.207 o
440.529 104.466 o
471.59 136.201 o
450.857 121.303 o
459.548 123.751 o
459.206 119.312 o
465.368 123.955 o
455.745 119.81 o
465.794 129.007 o
464.83 128.511 o
465.422 128.256 o
488.302 146.212 o
461.164 122.884 o
457.256 123.487 o
438.791 100.476 o
457.193 116.855 o
440.145 108.382 o
444.192 115.385 o
452.225 117.487 o
448.011 108.335 o
460.299 126.173 o
436.922 102.107 o
460.549 113.956 o
448.336 119.92 o
448.336 119.92 o
grestore
0.800 setlinewidth
0.000 setgray
gsave
/o {
gsave
newpath
translate
0.8 setlinewidth
1 setlinejoin
0 setlinecap
0 0 m
0 -3.5 l

gsave
0.000 setgray
fill
grestore
stroke
grestore
} bind def
396.028 37.5438 o
grestore
/DejaVuSans findfont
10.000 scalefont
setfont
gsave
385.481222 22.950000 translate
0.000000 rotate
0.000000 0 m /minus glyphshow
8.378906 0 m /five glyphshow
14.741211 0 m /zero glyphshow
grestore
gsave
/o {
gsave
newpath
translate
0.8 setlinewidth
1 setlinejoin
0 setlinecap
0 0 m
0 -3.5 l

gsave
0.000 setgray
fill
grestore
stroke
grestore
} bind def
443.782 37.5438 o
grestore
gsave
440.602079 22.950000 translate
0.000000 rotate
0.000000 0 m /zero glyphshow
grestore
gsave
/o {
gsave
newpath
translate
0.8 setlinewidth
1 setlinejoin
0 setlinecap
0 0 m
0 -3.5 l

gsave
0.000 setgray
fill
grestore
stroke
grestore
} bind def
491.535 37.5438 o
grestore
gsave
485.176060 22.950000 translate
0.000000 rotate
0.000000 0 m /five glyphshow
6.362305 0 m /zero glyphshow
grestore
gsave
441.139117 9.278125 translate
0.000000 rotate
0.000000 0 m /w glyphshow
8.178711 0 m /i glyphshow
10.957031 0 m /d glyphshow
17.304688 0 m /t glyphshow
21.225586 0 m /h glyphshow
27.563477 0 m /three glyphshow
grestore
gsave
/o {
gsave
newpath
translate
0.8 setlinewidth
1 setlinejoin
0 setlinecap
-0 0 m
-3.5 0 l

gsave
0.000 setgray
fill
grestore
stroke
grestore
} bind def
381.702 50.2225 o
grestore
gsave
/o {
gsave
newpath
translate
0.8 setlinewidth
1 setlinejoin
0 setlinecap
-0 0 m
-3.5 0 l

gsave
0.000 setgray
fill
grestore
stroke
grestore
} bind def
381.702 92.485 o
grestore
gsave
/o {
gsave
newpath
translate
0.8 setlinewidth
1 setlinejoin
0 setlinecap
-0 0 m
-3.5 0 l

gsave
0.000 setgray
fill
grestore
stroke
grestore
} bind def
381.702 134.748 o
grestore
1.500 setlinewidth
2 setlinecap
1.000 0.000 0.000 setrgbcolor
gsave
152.8 135.2 381.7 37.54 clipbox
381.701997 37.54375 m
534.513737 172.78375 l
stroke
grestore
0.800 setlinewidth
0 setlinejoin
0.000 setgray
gsave
381.701997 37.54375 m
381.701997 172.78375 l
stroke
grestore
gsave
381.701997 37.54375 m
534.513737 37.54375 l
stroke
grestore
/DejaVuSans findfont
16.000 scalefont
setfont
gsave
391.252730 147.426250 translate
0.000000 rotate
0.000000 0 m /parenleft glyphshow
6.242188 0 m /c glyphshow
15.039062 0 m /parenright glyphshow
grestore
gsave
548.070183 37.54375 m
700.881923 37.54375 l
700.881923 172.78375 l
548.070183 172.78375 l
cl
1.000 setgray
fill
grestore
0.480 setlinewidth
1 setlinejoin
0 setlinecap
1.000 setgray
gsave
152.8 135.2 548.1 37.54 clipbox
/o {
gsave
newpath
translate
0.5 setlinewidth
1 setlinejoin
0 setlinecap
0 -3 m
0.795609 -3 1.55874 -2.683901 2.12132 -2.12132 c
2.683901 -1.55874 3 -0.795609 3 0 c
3 0.795609 2.683901 1.55874 2.12132 2.12132 c
1.55874 2.683901 0.795609 3 0 3 c
-0.795609 3 -1.55874 2.683901 -2.12132 2.12132 c
-2.683901 1.55874 -3 0.795609 -3 0 c
-3 -0.795609 -2.683901 -1.55874 -2.12132 -2.12132 c
-1.55874 -2.683901 -0.795609 -3 0 -3 c
cl

gsave
0.122 0.467 0.706 setrgbcolor
fill
grestore
stroke
grestore
} bind def
573.093 81.2854 o
573.093 81.2854 o
579.842 101.232 o
578.755 104.521 o
581.761 106.099 o
573.796 110.08 o
582.027 109.655 o
574.507 114.039 o
568.694 106.028 o
569.334 103.27 o
573.659 116.338 o
575.383 109.549 o
567.67 108.524 o
577.802 116.935 o
570.885 119.354 o
584.445 116.663 o
584.577 121.78 o
560.929 97.8473 o
573.511 119.156 o
578.124 122.584 o
577.295 115.734 o
598.531 123.81 o
580.951 110.073 o
566.029 110.685 o
582.682 121.159 o
580.697 129.26 o
583.284 113.713 o
565.598 98.5978 o
557.109 89.0939 o
577.991 114.372 o
579.57 120.414 o
578.61 107.683 o
580.226 107.331 o
578.273 115.412 o
597.938 117.183 o
590.846 122.708 o
574.062 97.8016 o
564.545 111.444 o
566.788 112.938 o
564.545 103.514 o
585.717 118.365 o
574.006 115.065 o
579.807 109.086 o
566.713 107.667 o
579.863 116.052 o
594.756 122.88 o
576.417 116.914 o
577.397 116.639 o
567.603 108.883 o
573.114 101.333 o
575.433 106.481 o
576.197 119.805 o
571.177 99.3095 o
577.376 115.665 o
573.362 115.364 o
581.328 117.861 o
588.873 122.454 o
578.974 118.558 o
582.441 124.18 o
571.198 108.164 o
580.617 116.94 o
585.173 113.582 o
578.035 115.234 o
583.041 125.707 o
584.863 112.124 o
571.38 110.92 o
581.354 107.52 o
568.054 102.838 o
578.94 120.759 o
577.781 116.82 o
560.671 91.7429 o
579.467 110.44 o
570.045 105.635 o
583.843 121.12 o
582.468 112.94 o
582.753 119.753 o
586.191 112.264 o
584.122 121.245 o
587.641 123.501 o
589.041 131.159 o
568.43 106.036 o
579.983 117.861 o
572.335 115.619 o
569.93 105.066 o
577.909 109.446 o
569.884 102.327 o
584.248 120.787 o
570.064 95.1442 o
574.203 107.066 o
569.185 103.213 o
587.129 119.053 o
562.662 107.076 o
579.049 108.055 o
580.531 113.496 o
581.53 110.506 o
572.276 101.242 o
569.563 103.057 o
586.479 119.824 o
582.329 118.855 o
577.763 110.33 o
590.443 132.43 o
576.138 106.102 o
572.029 108.83 o
578.254 109.466 o
585.219 115.614 o
581.624 106.849 o
568.108 102.995 o
576.994 110.228 o
568.925 94.7537 o
578.273 100.478 o
577.494 121.47 o
570.455 114.161 o
572.499 102.643 o
586.151 118.17 o
583.314 113.407 o
574.745 121.606 o
568.61 104.121 o
579.412 119.819 o
590.403 133.189 o
590.651 122.765 o
555.942 104.232 o
590.061 128.183 o
580.252 116.975 o
580.438 109.098 o
578.856 117.317 o
582.799 119.638 o
597.329 118.569 o
586.749 122.797 o
587.996 111.88 o
589.532 117.413 o
583.521 108.014 o
573.078 112.678 o
588.693 114.436 o
579.412 113.55 o
579.882 113.807 o
582.151 107.174 o
583.303 108.881 o
574.524 111.172 o
573.074 94.2837 o
592.558 131.476 o
568.702 107.426 o
572.128 107.155 o
575.095 119.634 o
580.804 117.912 o
588.439 133.064 o
594.301 129.97 o
567.147 116.791 o
588.806 122.557 o
584.776 115.413 o
583.331 119.322 o
583.547 110.409 o
586.351 124.18 o
563.802 96.0756 o
578.869 114.211 o
587.009 122.867 o
585.704 114.942 o
581.843 111.821 o
572.048 114.02 o
569.573 104.652 o
590.899 125.614 o
593.257 132.56 o
568.115 106.733 o
568.935 95.6378 o
576.652 115.821 o
576.373 108.445 o
585.692 118.127 o
569.271 100.407 o
581.299 114.636 o
587.885 110.807 o
571.368 105.793 o
578.858 115.589 o
577.76 116.747 o
588.46 121.051 o
583.324 121.697 o
577.32 124.135 o
567.873 100.807 o
586.945 118.904 o
570.53 116.963 o
571.855 113.163 o
583.402 122.101 o
578.306 122.518 o
578.117 115.565 o
587.243 124.388 o
576.982 113.496 o
581.952 123.913 o
567.941 96.7265 o
569.773 111.973 o
566.897 111.687 o
563.03 95.063 o
566.245 104.633 o
574.961 109.3 o
580.157 103.69 o
581.163 106.864 o
582.483 123.075 o
572.803 97.6647 o
565.592 97.7171 o
565.598 102.773 o
580.157 123.974 o
582.483 121.82 o
596.116 129.473 o
571.391 111.429 o
576.635 116.12 o
573.036 109.185 o
571.937 124.801 o
580.864 112.796 o
587.815 127.221 o
574.703 104.553 o
587.173 112.708 o
567.972 101.959 o
580.972 116.248 o
573.903 110.413 o
579.53 108.754 o
568.417 99.0712 o
576.392 105.103 o
579.729 112.823 o
559.942 100.669 o
574.74 99.7575 o
581.116 123.986 o
568.083 120.361 o
582.774 122.523 o
585.948 122.015 o
583.79 123.724 o
576.913 119.012 o
573.026 103.688 o
575.593 102.136 o
571.101 109.53 o
575.328 103.057 o
588.525 116.788 o
576.657 103.663 o
580.682 110.338 o
559.986 90.9213 o
575.303 102.664 o
571.107 104.878 o
597.942 114.414 o
571.636 115.39 o
580.059 119.476 o
570.054 103.666 o
574.822 119.88 o
581.897 118.103 o
598.872 125.074 o
588.338 129.057 o
576.388 100.151 o
588.619 123.803 o
570.593 105.955 o
572.092 106.633 o
593.807 123.795 o
565.846 98.9343 o
586.027 127.044 o
575.072 108.005 o
569.811 100.42 o
568.534 102.838 o
572.348 106.687 o
581.748 121.815 o
580.124 117.503 o
583.528 126.981 o
588.611 126.917 o
584.968 129.052 o
580.929 118.782 o
579.714 107.63 o
589.534 125.984 o
579.198 109.608 o
585.576 113.058 o
567.145 104.611 o
580.848 124.571 o
580.054 117.694 o
574.646 101.2 o
570.285 112.343 o
571.443 107.199 o
585.729 116.047 o
566.419 103.005 o
578.459 114.286 o
578.325 115.187 o
588.055 120.777 o
586.464 125.806 o
574.898 114.135 o
577.672 115.663 o
577.622 114.472 o
577.809 113.488 o
585.681 118.936 o
573.254 107.76 o
571.706 108.431 o
572.413 111.339 o
580.279 117.242 o
572.501 107.547 o
581.864 109.593 o
579.12 109.87 o
582.235 119.506 o
587.093 127.548 o
579.935 113.466 o
581.798 117.748 o
585.051 117.327 o
564.224 103.056 o
589.899 117.214 o
569.563 108.012 o
579.656 120.574 o
589.841 130.504 o
558.182 105.218 o
587.65 120.865 o
587.883 117.739 o
572.642 101.237 o
574.994 106.088 o
566.387 103.252 o
577.951 111.897 o
596.701 122.207 o
571.512 102.648 o
563.605 98.1397 o
576.965 107.101 o
576.31 105.084 o
569.445 100.118 o
582.625 106.841 o
586.949 122.253 o
590.905 125.294 o
565.088 104.983 o
573.508 111.672 o
574.648 103.644 o
567.733 97.1863 o
589.161 115.207 o
587.694 112.952 o
583.538 124.855 o
571.538 108.448 o
561.581 111.735 o
578.864 113.464 o
581.624 107.06 o
581.194 111.474 o
577.299 111.512 o
577.12 109.912 o
582.256 111.627 o
567.672 107.157 o
580.126 111.006 o
579.177 108.572 o
577.691 111.86 o
580.361 115.77 o
581.288 121.479 o
574.375 119.241 o
563.84 105.532 o
573.099 109.814 o
566.757 109.591 o
582.174 106.542 o
585.444 123.78 o
562.251 94.61 o
585.278 119.656 o
563.938 106.793 o
588.833 123.272 o
576.528 121.668 o
582.224 112.311 o
561.697 95.7172 o
575.727 116.458 o
561.332 91.2628 o
585.595 122.542 o
583.975 117.371 o
569.533 98.9765 o
573.622 111.27 o
563.372 103.26 o
565.181 120.392 o
562.404 98.7956 o
573.626 113.645 o
576.056 108.36 o
595.661 127.348 o
573.25 109.987 o
563.903 110.761 o
585.4 123.305 o
573.888 109.167 o
569.267 114.216 o
582.14 123.25 o
571.731 105.466 o
563.84 100.946 o
580.957 114.325 o
581.63 114.604 o
585.62 118.091 o
578.312 114.223 o
583.685 119.425 o
571.036 115.471 o
574.965 108.398 o
593.52 122.784 o
568.436 112.309 o
588.015 120.813 o
593.066 121.913 o
584.197 113.258 o
582.266 104.127 o
566.236 99.3975 o
572.419 118.837 o
588.978 122.824 o
586.678 118.713 o
580.069 115.434 o
545.289 76.6619 o
581.5 115.743 o
584.082 130.222 o
579.24 120.456 o
564.983 106.415 o
580.701 108.504 o
586.22 121.901 o
570.266 105.943 o
586.435 123.413 o
568.623 117.457 o
592.112 121.977 o
569.152 114.323 o
558.32 101.249 o
573.366 109.437 o
575.987 113.26 o
588.304 120.179 o
586.705 112.538 o
588.913 126.124 o
561.504 83.9683 o
580.734 124.471 o
572.207 116.113 o
589.774 128.998 o
588.208 116.747 o
582.705 122.126 o
573.525 105.644 o
588.076 124.37 o
583.66 129.226 o
577.928 120.774 o
589.585 121.496 o
578.067 116.994 o
586.405 124.15 o
592.703 122.344 o
570.933 103.723 o
586.745 116.955 o
589.052 132.907 o
586.542 117.014 o
572.831 113.276 o
584.208 130.173 o
583.114 111.753 o
573.053 115.329 o
581.666 116.438 o
576.847 114.015 o
580.008 122.564 o
572.281 111.006 o
577.076 98.9123 o
585.152 122.537 o
580.51 124.872 o
577.208 111.752 o
575.848 120.4 o
566.283 113.155 o
569.282 106.163 o
581.754 112.088 o
580.86 112.445 o
564.635 111.287 o
578.713 116.155 o
578.226 121.575 o
582.672 104.166 o
578.787 104.699 o
572.66 112.832 o
565.741 101.913 o
567.514 105.661 o
579.242 113.488 o
569.456 105.066 o
581.345 112.397 o
587.051 121.195 o
575.04 113.625 o
578.184 110.551 o
568.629 117.64 o
587.117 124.072 o
590.926 126.454 o
570.045 108.69 o
572.499 109.238 o
577.469 121.125 o
587.57 115.264 o
584.493 115.385 o
567.063 100.843 o
586.235 119.213 o
576.1 100.234 o
565.617 102.072 o
565.439 104.075 o
569.494 101.776 o
587.274 118.578 o
584.292 118.936 o
588.038 121.398 o
580.035 118.637 o
574.451 112.132 o
573.215 106.023 o
580.753 106.912 o
585.385 110.671 o
591.255 119.66 o
578.527 108.437 o
570.079 102.625 o
582.743 116.747 o
586.101 117.433 o
583.131 130.158 o
588.145 133.471 o
573.783 108.489 o
593.566 133.307 o
587.568 123.156 o
566.419 109.133 o
578.732 120.982 o
587.243 125.027 o
576.801 113.885 o
577.37 109.596 o
582.289 119.055 o
589.249 125.014 o
588.9 124.823 o
587.501 117.342 o
572.216 107.147 o
575.326 120.647 o
589.436 143.21 o
585.746 124.782 o
571.523 113.469 o
573.567 120.098 o
568.486 101.345 o
578.543 113.675 o
564.135 97.6698 o
567.974 108.749 o
566.293 84.1965 o
563.107 100.064 o
578.037 104.53 o
575.559 104.947 o
569.573 116.749 o
596.582 129.96 o
604.685 134.888 o
585.02 124.603 o
604.112 145.095 o
583.391 130.844 o
601.018 137.652 o
584.615 127.36 o
587.45 142.689 o
573.811 124.204 o
583.135 127.051 o
582.594 120.277 o
570.258 114.362 o
563.603 105.067 o
591.501 124.904 o
603.545 150.723 o
573.154 133.706 o
579.439 116.855 o
579.653 116.994 o
571.894 114.287 o
580.885 112.582 o
573.582 106.834 o
581.912 115.153 o
571.964 98.5438 o
583.349 115.606 o
576.365 114.884 o
571.468 112.13 o
582.59 118.01 o
553.554 86.3958 o
572.91 99.9722 o
563.93 95.369 o
570.465 104.499 o
564.161 124.195 o
591.851 126.124 o
583.257 137.936 o
560.127 86.4161 o
587.1 117.413 o
582.415 111.515 o
557.481 100.527 o
549.302 101.913 o
569.917 95.7747 o
571.997 116.003 o
572.885 114.277 o
579.2 114.778 o
571.363 104.482 o
580.447 104.08 o
555.168 103.294 o
560.574 97.4432 o
569.601 107.074 o
557.331 88.6476 o
573.691 98.0958 o
572.83 114.658 o
594.458 127.066 o
591.154 131.426 o
601.57 131.432 o
584.212 121.114 o
573.84 106.606 o
576.426 107.272 o
578.273 99.9012 o
588.027 124.49 o
573.112 106.073 o
574.316 112.134 o
593.037 122.904 o
575.972 104.097 o
573.466 108.876 o
590.489 119.793 o
572.384 116.657 o
575.494 115.381 o
570.677 107.894 o
578.187 112.489 o
552.177 88.6898 o
572.159 95.6614 o
589.56 125.462 o
580.797 122.01 o
575.341 122.687 o
577.838 116.399 o
562.711 101.455 o
584.147 112.61 o
574.843 100.353 o
566.797 102.52 o
572.799 106.405 o
575.25 105.968 o
572.245 116.948 o
578.608 107.12 o
574.759 113.915 o
582.783 116.444 o
574.717 115.751 o
584.947 131.392 o
585.857 114.445 o
559.98 95.3183 o
584.504 111.922 o
581.876 114.521 o
589.238 116.659 o
561.77 102.126 o
569.647 110.387 o
560.087 95.4755 o
574.1 101.342 o
585.299 112.23 o
571.024 115.648 o
570.153 102.136 o
580.548 107.282 o
578.197 98.5573 o
575.387 107.845 o
578.144 112.13 o
577.909 114.561 o
580.81 108.874 o
582.52 118.017 o
582.749 104.946 o
580.896 119.345 o
575.147 109.14 o
576.082 108.765 o
569.37 110.271 o
600.595 128.684 o
601.726 142.487 o
589.314 124.554 o
579.975 116.815 o
569.133 101.648 o
568.979 103.913 o
577.67 107.41 o
574.369 116.284 o
574.992 111.632 o
572.279 106.175 o
592.473 130.138 o
584.745 122.551 o
571.779 106.247 o
576.552 117.912 o
563.571 103.079 o
580.732 119.519 o
569.815 108.883 o
580.291 122.669 o
579.792 109.084 o
586.793 111.64 o
577.039 121.509 o
562.454 97.636 o
591.92 127.609 o
579.06 118.762 o
577.116 103.117 o
558.977 100.537 o
573.972 95.888 o
564.857 107.733 o
563.966 108.198 o
577.223 115.88 o
579.993 119.115 o
580.508 116.87 o
558.945 98.6722 o
565.647 112.592 o
570.295 114.35 o
574.946 102.32 o
575.727 116.13 o
572.608 106.53 o
564.287 93.457 o
566.639 108.868 o
568.641 117.273 o
586.237 115.153 o
573.127 109.417 o
575.96 113.38 o
581.945 121.736 o
591.239 116.649 o
580.827 109.219 o
571.233 111.048 o
563.768 106.92 o
571.055 107.488 o
580.069 123.731 o
575.492 121.281 o
578.942 116.363 o
588.097 125.615 o
560.223 107.074 o
592.34 129.896 o
568.593 98.1938 o
576.604 109.988 o
568.683 102.205 o
588.942 121.484 o
562.708 99.624 o
570.906 108.993 o
571.573 102.799 o
566.427 96.1534 o
581.631 105.874 o
579.219 107.405 o
572.589 91.7919 o
567.101 105.081 o
563.378 114.756 o
583.528 127.294 o
572.608 102.09 o
578.801 112.041 o
586.43 113.997 o
594.258 132.741 o
584.907 115.956 o
577.483 123.245 o
565.559 111.983 o
593.434 113.006 o
590.37 120.04 o
557.527 97.4196 o
570.608 107.155 o
565.634 97.0967 o
578.214 110.832 o
577.045 104.63 o
582.499 112.073 o
576.134 110.041 o
582.029 122.31 o
571.559 107.965 o
580.354 120.059 o
576.373 114.174 o
591.217 120.464 o
591.935 134.829 o
574.715 112.6 o
584.842 126.513 o
592.825 117.273 o
572.595 115.31 o
568.832 103.749 o
562.566 105.316 o
584.191 109.679 o
594.813 128.887 o
555.187 92.578 o
571.634 112.1 o
569.823 114.987 o
572.058 106.996 o
566.566 115.964 o
583.878 106.443 o
572.623 114.357 o
585.675 119.9 o
566.639 107.776 o
568.514 109.427 o
571.534 104.69 o
568.104 106.763 o
573.68 100.29 o
574.274 110.065 o
577.202 114.778 o
567.363 116.368 o
580.898 105.277 o
584.47 110.458 o
580.867 121.558 o
578.107 113.373 o
571.947 113.4 o
569.632 103.867 o
579.889 123.884 o
579.618 108.665 o
582.38 110.46 o
561.518 100.136 o
580.012 121.036 o
584.695 122.207 o
568.182 104.466 o
586.584 136.201 o
579.914 121.303 o
580.262 123.751 o
585.58 119.312 o
587.61 123.955 o
578.718 119.81 o
586.819 129.007 o
577.36 128.511 o
578.308 128.256 o
607.762 146.212 o
584.004 122.884 o
580.336 123.487 o
568.125 100.476 o
585.461 116.855 o
574.327 108.382 o
578.43 115.385 o
581.937 117.487 o
588.017 108.335 o
574.254 126.173 o
560.866 102.107 o
578.974 113.956 o
576.528 119.92 o
576.528 119.92 o
grestore
0.800 setlinewidth
0.000 setgray
gsave
/o {
gsave
newpath
translate
0.8 setlinewidth
1 setlinejoin
0 setlinecap
0 0 m
0 -3.5 l

gsave
0.000 setgray
fill
grestore
stroke
grestore
} bind def
562.396 37.5438 o
grestore
/DejaVuSans findfont
10.000 scalefont
setfont
gsave
551.849408 22.950000 translate
0.000000 rotate
0.000000 0 m /minus glyphshow
8.378906 0 m /five glyphshow
14.741211 0 m /zero glyphshow
grestore
gsave
/o {
gsave
newpath
translate
0.8 setlinewidth
1 setlinejoin
0 setlinecap
0 0 m
0 -3.5 l

gsave
0.000 setgray
fill
grestore
stroke
grestore
} bind def
610.15 37.5438 o
grestore
gsave
606.970265 22.950000 translate
0.000000 rotate
0.000000 0 m /zero glyphshow
grestore
gsave
/o {
gsave
newpath
translate
0.8 setlinewidth
1 setlinejoin
0 setlinecap
0 0 m
0 -3.5 l

gsave
0.000 setgray
fill
grestore
stroke
grestore
} bind def
657.904 37.5438 o
grestore
gsave
651.544246 22.950000 translate
0.000000 rotate
0.000000 0 m /five glyphshow
6.362305 0 m /zero glyphshow
grestore
gsave
607.507303 9.278125 translate
0.000000 rotate
0.000000 0 m /w glyphshow
8.178711 0 m /i glyphshow
10.957031 0 m /d glyphshow
17.304688 0 m /t glyphshow
21.225586 0 m /h glyphshow
27.563477 0 m /two glyphshow
grestore
gsave
/o {
gsave
newpath
translate
0.8 setlinewidth
1 setlinejoin
0 setlinecap
-0 0 m
-3.5 0 l

gsave
0.000 setgray
fill
grestore
stroke
grestore
} bind def
548.07 50.2225 o
grestore
gsave
/o {
gsave
newpath
translate
0.8 setlinewidth
1 setlinejoin
0 setlinecap
-0 0 m
-3.5 0 l

gsave
0.000 setgray
fill
grestore
stroke
grestore
} bind def
548.07 92.485 o
grestore
gsave
/o {
gsave
newpath
translate
0.8 setlinewidth
1 setlinejoin
0 setlinecap
-0 0 m
-3.5 0 l

gsave
0.000 setgray
fill
grestore
stroke
grestore
} bind def
548.07 134.748 o
grestore
1.500 setlinewidth
2 setlinecap
1.000 0.000 0.000 setrgbcolor
gsave
152.8 135.2 548.1 37.54 clipbox
548.070183 37.54375 m
700.881923 172.78375 l
stroke
grestore
0.800 setlinewidth
0 setlinejoin
0.000 setgray
gsave
548.070183 37.54375 m
548.070183 172.78375 l
stroke
grestore
gsave
548.070183 37.54375 m
700.881923 37.54375 l
stroke
grestore
/DejaVuSans findfont
16.000 scalefont
setfont
gsave
557.620916 147.426250 translate
0.000000 rotate
0.000000 0 m /parenleft glyphshow
6.242188 0 m /d glyphshow
16.398438 0 m /parenright glyphshow
grestore
0.495 setlinewidth
0 setlinecap
gsave
152.8 135.2 48.97 37.54 clipbox
93.166421 37.54375 m
96.385018 37.54375 l
96.385018 38.990941 l
93.166421 38.990941 l
cl
gsave
0.122 0.467 0.706 setrgbcolor
fill
grestore
stroke
grestore
gsave
152.8 135.2 48.97 37.54 clipbox
96.385018 37.54375 m
99.603616 37.54375 l
99.603616 40.438132 l
96.385018 40.438132 l
cl
gsave
0.122 0.467 0.706 setrgbcolor
fill
grestore
stroke
grestore
gsave
152.8 135.2 48.97 37.54 clipbox
99.603616 37.54375 m
102.822213 37.54375 l
102.822213 40.438132 l
99.603616 40.438132 l
cl
gsave
0.122 0.467 0.706 setrgbcolor
fill
grestore
stroke
grestore
gsave
152.8 135.2 48.97 37.54 clipbox
102.822213 37.54375 m
106.04081 37.54375 l
106.04081 40.438132 l
102.822213 40.438132 l
cl
gsave
0.122 0.467 0.706 setrgbcolor
fill
grestore
stroke
grestore
gsave
152.8 135.2 48.97 37.54 clipbox
106.04081 37.54375 m
109.259407 37.54375 l
109.259407 41.885323 l
106.04081 41.885323 l
cl
gsave
0.122 0.467 0.706 setrgbcolor
fill
grestore
stroke
grestore
gsave
152.8 135.2 48.97 37.54 clipbox
109.259407 37.54375 m
112.478005 37.54375 l
112.478005 46.226896 l
109.259407 46.226896 l
cl
gsave
0.122 0.467 0.706 setrgbcolor
fill
grestore
stroke
grestore
gsave
152.8 135.2 48.97 37.54 clipbox
112.478005 37.54375 m
115.696602 37.54375 l
115.696602 59.251615 l
112.478005 59.251615 l
cl
gsave
0.122 0.467 0.706 setrgbcolor
fill
grestore
stroke
grestore
gsave
152.8 135.2 48.97 37.54 clipbox
115.696602 37.54375 m
118.915199 37.54375 l
118.915199 73.723525 l
115.696602 73.723525 l
cl
gsave
0.122 0.467 0.706 setrgbcolor
fill
grestore
stroke
grestore
gsave
152.8 135.2 48.97 37.54 clipbox
118.915199 37.54375 m
122.133797 37.54375 l
122.133797 98.325772 l
118.915199 98.325772 l
cl
gsave
0.122 0.467 0.706 setrgbcolor
fill
grestore
stroke
grestore
gsave
152.8 135.2 48.97 37.54 clipbox
122.133797 37.54375 m
125.352394 37.54375 l
125.352394 127.269593 l
122.133797 127.269593 l
cl
gsave
0.122 0.467 0.706 setrgbcolor
fill
grestore
stroke
grestore
gsave
152.8 135.2 48.97 37.54 clipbox
125.352394 37.54375 m
128.570991 37.54375 l
128.570991 143.188694 l
125.352394 143.188694 l
cl
gsave
0.122 0.467 0.706 setrgbcolor
fill
grestore
stroke
grestore
gsave
152.8 135.2 48.97 37.54 clipbox
128.570991 37.54375 m
131.789588 37.54375 l
131.789588 153.319031 l
128.570991 153.319031 l
cl
gsave
0.122 0.467 0.706 setrgbcolor
fill
grestore
stroke
grestore
gsave
152.8 135.2 48.97 37.54 clipbox
131.789588 37.54375 m
135.008186 37.54375 l
135.008186 154.766222 l
131.789588 154.766222 l
cl
gsave
0.122 0.467 0.706 setrgbcolor
fill
grestore
stroke
grestore
gsave
152.8 135.2 48.97 37.54 clipbox
135.008186 37.54375 m
138.226783 37.54375 l
138.226783 166.34375 l
135.008186 166.34375 l
cl
gsave
0.122 0.467 0.706 setrgbcolor
fill
grestore
stroke
grestore
gsave
152.8 135.2 48.97 37.54 clipbox
138.226783 37.54375 m
141.44538 37.54375 l
141.44538 151.87184 l
138.226783 151.87184 l
cl
gsave
0.122 0.467 0.706 setrgbcolor
fill
grestore
stroke
grestore
gsave
152.8 135.2 48.97 37.54 clipbox
141.44538 37.54375 m
144.663978 37.54375 l
144.663978 141.741503 l
141.44538 141.741503 l
cl
gsave
0.122 0.467 0.706 setrgbcolor
fill
grestore
stroke
grestore
gsave
152.8 135.2 48.97 37.54 clipbox
144.663978 37.54375 m
147.882575 37.54375 l
147.882575 134.505548 l
144.663978 134.505548 l
cl
gsave
0.122 0.467 0.706 setrgbcolor
fill
grestore
stroke
grestore
gsave
152.8 135.2 48.97 37.54 clipbox
147.882575 37.54375 m
151.101172 37.54375 l
151.101172 70.829143 l
147.882575 70.829143 l
cl
gsave
0.122 0.467 0.706 setrgbcolor
fill
grestore
stroke
grestore
gsave
152.8 135.2 48.97 37.54 clipbox
151.101172 37.54375 m
154.319769 37.54375 l
154.319769 66.48757 l
151.101172 66.48757 l
cl
gsave
0.122 0.467 0.706 setrgbcolor
fill
grestore
stroke
grestore
gsave
152.8 135.2 48.97 37.54 clipbox
154.319769 37.54375 m
157.538367 37.54375 l
157.538367 57.804424 l
154.319769 57.804424 l
cl
gsave
0.122 0.467 0.706 setrgbcolor
fill
grestore
stroke
grestore
gsave
152.8 135.2 48.97 37.54 clipbox
157.538367 37.54375 m
160.756964 37.54375 l
160.756964 43.332514 l
157.538367 43.332514 l
cl
gsave
0.122 0.467 0.706 setrgbcolor
fill
grestore
stroke
grestore
gsave
152.8 135.2 48.97 37.54 clipbox
160.756964 37.54375 m
163.975561 37.54375 l
163.975561 40.438132 l
160.756964 40.438132 l
cl
gsave
0.122 0.467 0.706 setrgbcolor
fill
grestore
stroke
grestore
gsave
152.8 135.2 48.97 37.54 clipbox
163.975561 37.54375 m
167.194159 37.54375 l
167.194159 37.54375 l
163.975561 37.54375 l
cl
gsave
0.122 0.467 0.706 setrgbcolor
fill
grestore
stroke
grestore
gsave
152.8 135.2 48.97 37.54 clipbox
167.194159 37.54375 m
170.412756 37.54375 l
170.412756 41.885323 l
167.194159 41.885323 l
cl
gsave
0.122 0.467 0.706 setrgbcolor
fill
grestore
stroke
grestore
gsave
152.8 135.2 48.97 37.54 clipbox
170.412756 37.54375 m
173.631353 37.54375 l
173.631353 40.438132 l
170.412756 40.438132 l
cl
gsave
0.122 0.467 0.706 setrgbcolor
fill
grestore
stroke
grestore
gsave
152.8 135.2 48.97 37.54 clipbox
173.631353 37.54375 m
176.84995 37.54375 l
176.84995 38.990941 l
173.631353 38.990941 l
cl
gsave
0.122 0.467 0.706 setrgbcolor
fill
grestore
stroke
grestore

end
showpage
